spi_master/spi_master.sim/sim_1/behav/xsim/spi_master_tb.vcd
$date
   Fri May 15 09:31:10 2026
$end
$version
  2018.2
$end
$timescale
  1ps
$end
$scope module spi_master_tb $end
$var reg 1 ! refclk $end
$var reg 1 " rst_n $end
$var reg 2 # cntl [1:0] $end
$var reg 8 $ input_data [7:0] $end
$var wire 8 % output_data [7:0] $end
$var wire 1 & ready $end
$var wire 1 ' sclk $end
$var wire 1 ( mosi $end
$var reg 1 ) miso $end
$var wire 8 * ss [7:0] $end
$var integer 32 + pass_cnt $end
$var integer 32 , fail_cnt $end
$var reg 8 - mosi_captured [7:0] $end
$var reg 8 . captured_mosi [7:0] $end
$var reg 8 / tmp [7:0] $end
$var parameter 32 0 REFCLK_PERIOD [31:0] $end
$var parameter 32 1 SCLK_PERIOD [31:0] $end
$var parameter 32 2 SCLK_HALF [31:0] $end
$scope module dut $end
$var wire 1 3 refclk $end
$var wire 1 4 rst_n $end
$var wire 2 5 cntl [1:0] $end
$var wire 8 6 input_data [7:0] $end
$var reg 8 7 output_data [7:0] $end
$var wire 1 & ready $end
$var wire 1 ' sclk $end
$var reg 1 8 mosi $end
$var wire 1 9 miso $end
$var reg 8 : ss [7:0] $end
$var reg 2 ; pre_cnt [1:0] $end
$var reg 1 < sclk_r $end
$var reg 1 = sclk_en $end
$var reg 1 > sclk_prev $end
$var wire 1 ? sclk_rise $end
$var wire 1 @ sclk_fall $end
$var reg 8 A tx_sr [7:0] $end
$var reg 8 B rx_sr [7:0] $end
$var reg 8 C ss_reg [7:0] $end
$var reg 3 D bit_cnt [2:0] $end
$var reg 1 E busy $end
$var reg 2 F state [1:0] $end
$var parameter 32 G PRESCALE [31:0] $end
$var parameter 2 H IDLE [1:0] $end
$var parameter 2 I PREPARE [1:0] $end
$var parameter 2 J XFER [1:0] $end
$var parameter 2 K DONE [1:0] $end
$upscope $end
$scope begin tc3_cleanup $end
$var integer 32 L j $end
$upscope $end
$scope begin tc7_drive $end
$var integer 32 M j $end
$upscope $end
$scope begin tc8_drive $end
$var integer 32 N j $end
$upscope $end
$scope begin tc9_drive $end
$var integer 32 O j $end
$upscope $end
$scope task do_reset $end
$upscope $end
$scope task apply_cntl $end
$var reg 2 P cmd [1:0] $end
$var reg 8 Q data [7:0] $end
$upscope $end
$scope task wait_ready $end
$var integer 32 R timeout $end
$upscope $end
$scope task do_transfer $end
$var reg 8 S miso_byte [7:0] $end
$var reg 8 T mosi_byte [7:0] $end
$var integer 32 U i $end
$var reg 8 V captured [7:0] $end
$upscope $end
$scope task check8 $end
$var reg 8 W got [7:0] $end
$var reg 8 X expected [7:0] $end
$var reg 160 Y name [159:0] $end
$upscope $end
$scope task check1 $end
$var reg 1 Z got $end
$var reg 1 [ expected $end
$var reg 160 \ name [159:0] $end
$upscope $end
$upscope $end
$enddefinitions $end
#0
$dumpvars
0!
0"
b0 #
b0 $
b0 %
1&
0'
0(
0)
b11111111 *
b0 +
b0 ,
bx -
bx .
bx /
b1010 0
b101000 1
b10100 2
03
04
b0 5
b0 6
b0 7
08
09
b11111111 :
b0 ;
0<
0=
0>
0?
0@
b0 A
b0 B
b11111111 C
b0 D
0E
b0 F
b10 G
b0 H
b1 I
b10 J
b11 K
bx L
bx M
bx N
bx O
bx P
bx Q
bx R
bx S
bx T
bx U
bx V
bx W
bx X
bx Y
xZ
x[
bx \
$end
#5000
1!
13
#10000
0!
03
#15000
1!
13
#20000
0!
03
#25000
1!
13
#30000
0!
03
#35000
1!
1"
13
14
#40000
0!
03
#45000
1!
13
#50000
0!
03
#55000
1!
13
b1 P
b10100101 Q
#60000
0!
03
#65000
1!
13
#66000
b1 #
b10100101 $
b1 5
b10100101 6
#70000
0!
03
#75000
1!
13
b10100101 A
#76000
b0 #
b0 5
#80000
0!
03
#85000
1!
13
#90000
0!
03
#95000
1!
0"
b0 #
b0 $
b1 +
13
04
b0 6
b0 A
1Z
1[
b111010001100001011110010111001100100000010010000100100101000111010010000010000001100001011001100111010001100101011100100010000001101100011011110110000101100100 \
#100000
0!
03
#105000
1!
13
#110000
0!
03
#115000
1!
13
#120000
0!
03
#125000
1!
13
#130000
0!
03
#135000
1!
1"
13
14
#140000
0!
03
#145000
1!
13
#150000
0!
03
#155000
1!
13
b10 P
b11 Q
#160000
0!
03
#165000
1!
13
#166000
b10 #
b11 $
b10 5
b11 6
#170000
0!
03
#175000
1!
13
b11110111 C
#176000
b0 #
b0 5
#180000
0!
03
#185000
1!
13
#190000
0!
03
#195000
1!
0"
b0 #
b0 $
b10 +
13
04
b0 6
b11111111 C
b100100001001001010001110100100000100000011000010110011001110100011001010111001000100000011000010110010001100100011100100010000001101100011011110110000101100100 \
#200000
0!
03
#205000
1!
13
#210000
0!
03
#215000
1!
13
#220000
0!
03
#225000
1!
13
#230000
0!
03
#235000
1!
1"
13
14
#240000
0!
03
#245000
1!
13
#250000
0!
03
#255000
1!
13
b1 P
b10111011 Q
#260000
0!
03
#265000
1!
13
#266000
b1 #
b10111011 $
b1 5
b10111011 6
#270000
0!
03
#275000
1!
13
b10111011 A
#276000
b0 #
b0 5
b10 P
b11001000 Q
#280000
0!
03
#285000
1!
13
#286000
b10 #
b11001000 $
b10 5
b11001000 6
#290000
0!
03
#295000
1!
13
#296000
b0 #
b0 5
#300000
0!
03
#305000
1!
13
#306000
b11 #
b11 5
#310000
0!
03
#315000
1!
0&
13
1E
b1 F
#320000
0!
03
#325000
1!
0'
1(
13
18
1=
b10 F
#330000
0!
03
#335000
1!
b11 +
13
b1 ;
b0 L
b11111111 W
b11111111 X
b110000101110110011001010010100100100000011001000111010101110010011010010110111001100111001000000111010001110010011000010110111001110011011001100110010101110010 Y
#340000
0!
03
#345000
1!
1'
13
b0 ;
1<
1?
#350000
0!
03
#355000
1!
13
b1 ;
1>
0?
b1 D
#360000
0!
03
#365000
1!
0'
13
b0 ;
0<
1@
b1 L
#370000
0!
03
#375000
1!
0(
13
08
b1 ;
0>
0@
b1110110 A
#380000
0!
03
#385000
1!
1'
13
b0 ;
1<
1?
#390000
0!
03
#395000
1!
13
b1 ;
1>
0?
b10 D
#400000
0!
03
#405000
1!
0'
13
b0 ;
0<
1@
b10 L
#410000
0!
03
#415000
1!
1(
13
18
b1 ;
0>
0@
b11101100 A
#420000
0!
03
#425000
1!
1'
13
b0 ;
1<
1?
#430000
0!
03
#435000
1!
13
b1 ;
1>
0?
b11 D
#440000
0!
03
#445000
1!
0'
13
b0 ;
0<
1@
b11 L
#450000
0!
03
#455000
1!
13
b1 ;
0>
0@
b11011000 A
#460000
0!
03
#465000
1!
1'
13
b0 ;
1<
1?
#470000
0!
03
#475000
1!
13
b1 ;
1>
0?
b100 D
#480000
0!
03
#485000
1!
0'
13
b0 ;
0<
1@
b100 L
#490000
0!
03
#495000
1!
13
b1 ;
0>
0@
b10110000 A
#500000
0!
03
#505000
1!
1'
13
b0 ;
1<
1?
#510000
0!
03
#515000
1!
13
b1 ;
1>
0?
b101 D
#520000
0!
03
#525000
1!
0'
13
b0 ;
0<
1@
b101 L
#530000
0!
03
#535000
1!
0(
13
08
b1 ;
0>
0@
b1100000 A
#540000
0!
03
#545000
1!
1'
13
b0 ;
1<
1?
#550000
0!
03
#555000
1!
13
b1 ;
1>
0?
b110 D
#560000
0!
03
#565000
1!
0'
13
b0 ;
0<
1@
b110 L
#570000
0!
03
#575000
1!
1(
13
18
b1 ;
0>
0@
b11000000 A
#580000
0!
03
#585000
1!
1'
13
b0 ;
1<
1?
#590000
0!
03
#595000
1!
13
b1 ;
1>
0?
b111 D
#600000
0!
03
#605000
1!
0'
13
b0 ;
0<
1@
b111 L
#610000
0!
03
#615000
1!
13
b1 ;
0>
0@
b10000000 A
#620000
0!
03
#625000
1!
1'
13
b0 ;
1<
1?
#630000
0!
03
#635000
1!
0'
13
b1 ;
0=
1>
0?
b0 D
b11 F
b1000 L
#640000
0!
03
#645000
1!
0'
0(
13
08
b0 ;
0<
#646000
b0 #
b0 5
b0 R
#650000
0!
03
#655000
1!
1&
13
0>
0E
b0 F
b1 R
#660000
0!
03
#665000
1!
0"
b0 #
b0 $
13
04
b0 6
b0 A
b10 R
#670000
0!
03
#675000
1!
13
#680000
0!
03
#685000
1!
13
#690000
0!
03
#695000
1!
13
#700000
0!
03
#705000
1!
1"
13
14
#710000
0!
03
#715000
1!
13
#720000
0!
03
#725000
1!
13
b1 P
b10100101 Q
#730000
0!
03
#735000
1!
13
#736000
b1 #
b10100101 $
b1 5
b10100101 6
#740000
0!
03
#745000
1!
13
b10100101 A
#746000
b0 #
b0 5
b10 P
b11 Q
#750000
0!
03
#755000
1!
13
#756000
b10 #
b11 $
b10 5
b11 6
#760000
0!
03
#765000
1!
13
b11110111 C
#766000
b0 #
b0 5
b0 S
b0 V
#770000
0!
03
#775000
1!
13
#776000
b11 #
b11 5
#780000
0!
03
#785000
1!
0&
13
1E
b1 F
b111 U
#790000
0!
03
#795000
1!
0'
1(
b11110111 *
13
18
b11110111 :
1=
b10 F
#800000
0!
03
#805000
1!
13
b1 ;
#810000
0!
03
#815000
1!
1'
13
b0 ;
1<
1?
b10000000 V
#820000
0!
03
#825000
1!
13
b1 ;
1>
0?
b1 D
#830000
0!
03
#835000
1!
0'
13
b0 ;
0<
1@
b110 U
#840000
0!
03
#845000
1!
0(
13
08
b1 ;
0>
0@
b1001010 A
#850000
0!
03
#855000
1!
1'
13
b0 ;
1<
1?
#860000
0!
03
#865000
1!
13
b1 ;
1>
0?
b10 D
#870000
0!
03
#875000
1!
0'
13
b0 ;
0<
1@
b101 U
#880000
0!
03
#885000
1!
1(
13
18
b1 ;
0>
0@
b10010100 A
#890000
0!
03
#895000
1!
1'
13
b0 ;
1<
1?
b10100000 V
#900000
0!
03
#905000
1!
13
b1 ;
1>
0?
b11 D
#910000
0!
03
#915000
1!
0'
13
b0 ;
0<
1@
b100 U
#920000
0!
03
#925000
1!
0(
13
08
b1 ;
0>
0@
b101000 A
#930000
0!
03
#935000
1!
1'
13
b0 ;
1<
1?
#940000
0!
03
#945000
1!
13
b1 ;
1>
0?
b100 D
#950000
0!
03
#955000
1!
0'
13
b0 ;
0<
1@
b11 U
#960000
0!
03
#965000
1!
13
b1 ;
0>
0@
b1010000 A
#970000
0!
03
#975000
1!
1'
13
b0 ;
1<
1?
#980000
0!
03
#985000
1!
13
b1 ;
1>
0?
b101 D
#990000
0!
03
#995000
1!
0'
13
b0 ;
0<
1@
b10 U
#1000000
0!
03
#1005000
1!
1(
13
18
b1 ;
0>
0@
b10100000 A
#1010000
0!
03
#1015000
1!
1'
13
b0 ;
1<
1?
b10100100 V
#1020000
0!
03
#1025000
1!
13
b1 ;
1>
0?
b110 D
#1030000
0!
03
#1035000
1!
0'
13
b0 ;
0<
1@
b1 U
#1040000
0!
03
#1045000
1!
0(
13
08
b1 ;
0>
0@
b1000000 A
#1050000
0!
03
#1055000
1!
1'
13
b0 ;
1<
1?
#1060000
0!
03
#1065000
1!
13
b1 ;
1>
0?
b111 D
#1070000
0!
03
#1075000
1!
0'
13
b0 ;
0<
1@
b0 U
#1080000
0!
03
#1085000
1!
1(
13
18
b1 ;
0>
0@
b10000000 A
#1090000
0!
03
#1095000
1!
1'
13
b0 ;
1<
1?
b10100101 V
#1100000
0!
03
#1105000
1!
0'
13
b1 ;
0=
1>
0?
b0 D
b11 F
b11111111111111111111111111111111 U
#1110000
0!
03
#1115000
1!
0'
0(
b11111111 *
13
08
b11111111 :
b0 ;
0<
#1116000
b0 #
b0 5
b0 R
#1120000
0!
03
#1125000
1!
1&
13
0>
0E
b0 F
b1 R
#1130000
0!
03
#1135000
1!
0"
b0 #
b0 $
b100 +
b10100101 .
13
04
b0 6
b0 A
b11111111 C
b10 R
b10100101 T
b10100101 W
b10100101 X
b111001001100101011001000010000001100010011110010010000001101101011000010111001101110100011001010111001000100000001010000011000001111000010000010011010100101001 Y
#1140000
0!
03
#1145000
1!
13
#1150000
0!
03
#1155000
1!
13
#1160000
0!
03
#1165000
1!
13
#1170000
0!
03
#1175000
1!
1"
13
14
#1180000
0!
03
#1185000
1!
13
#1190000
0!
03
#1195000
1!
13
b1 P
b0 Q
#1200000
0!
03
#1205000
1!
13
#1206000
b1 #
b0 $
b1 5
#1210000
0!
03
#1215000
1!
13
#1216000
b0 #
b0 5
b10 P
#1220000
0!
03
#1225000
1!
13
#1226000
b10 #
b0 $
b10 5
#1230000
0!
03
#1235000
1!
13
b11111110 C
#1236000
b0 #
b0 5
b111100 S
b0 V
#1240000
0!
03
#1245000
1!
13
#1246000
b11 #
b11 5
#1250000
0!
03
#1255000
1!
0&
13
1E
b1 F
b111 U
#1260000
0!
03
#1265000
1!
0'
b11111110 *
13
b11111110 :
1=
b10 F
#1270000
0!
03
#1275000
1!
13
b1 ;
#1280000
0!
03
#1285000
1!
1'
13
b0 ;
1<
1?
#1290000
0!
03
#1295000
1!
13
b1 ;
1>
0?
b1 D
#1300000
0!
03
#1305000
1!
0'
13
b0 ;
0<
1@
b110 U
#1310000
0!
03
#1315000
1!
13
b1 ;
0>
0@
#1320000
0!
03
#1325000
1!
1'
13
b0 ;
1<
1?
#1330000
0!
03
#1335000
1!
13
b1 ;
1>
0?
b10 D
#1340000
0!
03
#1345000
1!
0'
1)
13
19
b0 ;
0<
1@
b101 U
#1350000
0!
03
#1355000
1!
13
b1 ;
0>
0@
#1360000
0!
03
#1365000
1!
1'
13
b0 ;
1<
1?
#1370000
0!
03
#1375000
1!
13
b1 ;
1>
0?
b1 B
b11 D
#1380000
0!
03
#1385000
1!
0'
13
b0 ;
0<
1@
b100 U
#1390000
0!
03
#1395000
1!
13
b1 ;
0>
0@
#1400000
0!
03
#1405000
1!
1'
13
b0 ;
1<
1?
#1410000
0!
03
#1415000
1!
13
b1 ;
1>
0?
b11 B
b100 D
#1420000
0!
03
#1425000
1!
0'
13
b0 ;
0<
1@
b11 U
#1430000
0!
03
#1435000
1!
13
b1 ;
0>
0@
#1440000
0!
03
#1445000
1!
1'
13
b0 ;
1<
1?
#1450000
0!
03
#1455000
1!
13
b1 ;
1>
0?
b111 B
b101 D
#1460000
0!
03
#1465000
1!
0'
13
b0 ;
0<
1@
b10 U
#1470000
0!
03
#1475000
1!
13
b1 ;
0>
0@
#1480000
0!
03
#1485000
1!
1'
13
b0 ;
1<
1?
#1490000
0!
03
#1495000
1!
13
b1 ;
1>
0?
b1111 B
b110 D
#1500000
0!
03
#1505000
1!
0'
0)
13
09
b0 ;
0<
1@
b1 U
#1510000
0!
03
#1515000
1!
13
b1 ;
0>
0@
#1520000
0!
03
#1525000
1!
1'
13
b0 ;
1<
1?
#1530000
0!
03
#1535000
1!
13
b1 ;
1>
0?
b11110 B
b111 D
#1540000
0!
03
#1545000
1!
0'
13
b0 ;
0<
1@
b0 U
#1550000
0!
03
#1555000
1!
13
b1 ;
0>
0@
#1560000
0!
03
#1565000
1!
1'
13
b0 ;
1<
1?
#1570000
0!
03
#1575000
1!
b111100 %
0'
13
b111100 7
b1 ;
0=
1>
0?
b111100 B
b0 D
b11 F
b11111111111111111111111111111111 U
#1580000
0!
03
#1585000
1!
0'
b11111111 *
13
b11111111 :
b0 ;
0<
#1586000
b0 #
b0 5
b0 R
#1590000
0!
03
#1595000
1!
1&
13
0>
0E
b0 F
b1 R
#1600000
0!
03
#1605000
1!
0"
b0 #
b0 $
b0 %
b101 +
b0 .
13
04
b0 7
b0 B
b11111111 C
b10 R
b0 T
b111100 W
b111100 X
b101010101010100010100000101010101010100001111010011000001111000001100110100001100100000011001100111001001101111011011010010000001001101010010010101001101001111 Y
#1610000
0!
03
#1615000
1!
13
#1620000
0!
03
#1625000
1!
13
#1630000
0!
03
#1635000
1!
13
#1640000
0!
03
#1645000
1!
1"
13
14
#1650000
0!
03
#1655000
1!
13
#1660000
0!
03
#1665000
1!
13
b1 P
b10110111 Q
#1670000
0!
03
#1675000
1!
13
#1676000
b1 #
b10110111 $
b1 5
b10110111 6
#1680000
0!
03
#1685000
1!
13
b10110111 A
#1686000
b0 #
b0 5
b10 P
b1 Q
#1690000
0!
03
#1695000
1!
13
#1696000
b10 #
b1 $
b10 5
b1 6
#1700000
0!
03
#1705000
1!
13
b11111101 C
#1706000
b0 #
b0 5
b1001110 S
#1710000
0!
03
#1715000
1!
13
#1716000
b11 #
b11 5
#1720000
0!
03
#1725000
1!
0&
13
1E
b1 F
b111 U
#1730000
0!
03
#1735000
1!
0'
1(
b11111101 *
13
18
b11111101 :
1=
b10 F
#1740000
0!
03
#1745000
1!
13
b1 ;
#1750000
0!
03
#1755000
1!
1'
13
b0 ;
1<
1?
b10000000 V
#1760000
0!
03
#1765000
1!
13
b1 ;
1>
0?
b1 D
#1770000
0!
03
#1775000
1!
0'
1)
13
19
b0 ;
0<
1@
b110 U
#1780000
0!
03
#1785000
1!
0(
13
08
b1 ;
0>
0@
b1101110 A
#1790000
0!
03
#1795000
1!
1'
13
b0 ;
1<
1?
#1800000
0!
03
#1805000
1!
13
b1 ;
1>
0?
b1 B
b10 D
#1810000
0!
03
#1815000
1!
0'
0)
13
09
b0 ;
0<
1@
b101 U
#1820000
0!
03
#1825000
1!
1(
13
18
b1 ;
0>
0@
b11011100 A
#1830000
0!
03
#1835000
1!
1'
13
b0 ;
1<
1?
b10100000 V
#1840000
0!
03
#1845000
1!
13
b1 ;
1>
0?
b10 B
b11 D
#1850000
0!
03
#1855000
1!
0'
13
b0 ;
0<
1@
b100 U
#1860000
0!
03
#1865000
1!
13
b1 ;
0>
0@
b10111000 A
#1870000
0!
03
#1875000
1!
1'
13
b0 ;
1<
1?
b10110000 V
#1880000
0!
03
#1885000
1!
13
b1 ;
1>
0?
b100 B
b100 D
#1890000
0!
03
#1895000
1!
0'
1)
13
19
b0 ;
0<
1@
b11 U
#1900000
0!
03
#1905000
1!
0(
13
08
b1 ;
0>
0@
b1110000 A
#1910000
0!
03
#1915000
1!
1'
13
b0 ;
1<
1?
#1920000
0!
03
#1925000
1!
13
b1 ;
1>
0?
b1001 B
b101 D
#1930000
0!
03
#1935000
1!
0'
13
b0 ;
0<
1@
b10 U
#1940000
0!
03
#1945000
1!
1(
13
18
b1 ;
0>
0@
b11100000 A
#1950000
0!
03
#1955000
1!
1'
13
b0 ;
1<
1?
b10110100 V
#1960000
0!
03
#1965000
1!
13
b1 ;
1>
0?
b10011 B
b110 D
#1970000
0!
03
#1975000
1!
0'
13
b0 ;
0<
1@
b1 U
#1980000
0!
03
#1985000
1!
13
b1 ;
0>
0@
b11000000 A
#1990000
0!
03
#1995000
1!
1'
13
b0 ;
1<
1?
b10110110 V
#2000000
0!
03
#2005000
1!
13
b1 ;
1>
0?
b100111 B
b111 D
#2010000
0!
03
#2015000
1!
0'
0)
13
09
b0 ;
0<
1@
b0 U
#2020000
0!
03
#2025000
1!
13
b1 ;
0>
0@
b10000000 A
#2030000
0!
03
#2035000
1!
1'
13
b0 ;
1<
1?
b10110111 V
#2040000
0!
03
#2045000
1!
b1001110 %
0'
13
b1001110 7
b1 ;
0=
1>
0?
b1001110 B
b0 D
b11 F
b11111111111111111111111111111111 U
#2050000
0!
03
#2055000
1!
0'
0(
b11111111 *
13
08
b11111111 :
b0 ;
0<
#2056000
b0 #
b0 5
b0 R
#2060000
0!
03
#2065000
1!
1&
13
0>
0E
b0 F
b1 R
#2070000
0!
03
#2075000
1!
0"
b0 #
b0 $
b0 %
b111 +
b10110111 .
13
04
b0 6
b0 7
b0 A
b0 B
b11111111 C
b10 R
b10110111 T
b1001110 W
b1001110 X
b10101000100001100110110001000000100111101010101010101000101000001010101010101000011110100110000011110000011010001000101 Y
#2080000
0!
03
#2085000
1!
13
#2090000
0!
03
#2095000
1!
13
#2100000
0!
03
#2105000
1!
13
#2110000
0!
03
#2115000
1!
1"
13
14
#2120000
0!
03
#2125000
1!
13
#2130000
0!
03
#2135000
1!
13
b1 P
b1010101 Q
#2140000
0!
03
#2145000
1!
13
#2146000
b1 #
b1010101 $
b1 5
b1010101 6
#2150000
0!
03
#2155000
1!
13
b1010101 A
#2156000
b0 #
b1000 +
b0 5
b100010101000001010001000101100100100000011000100110010101100110011011110111001001100101001000000111010001110010011000010110111001110011011001100110010101110010 \
#2160000
0!
03
#2165000
1!
13
#2166000
b11 #
b11 5
#2170000
0!
03
#2175000
1!
0&
13
1E
b1 F
#2180000
0!
03
#2185000
1!
0'
b1001 +
13
1=
b10 F
b111 M
0Z
0[
b100010001011001001111010011000000100000011001000111010101110010011010010110111001100111001000000111010001110010011000010110111001110011011001100110010101110010 \
#2190000
0!
03
#2195000
1!
13
b1 ;
#2200000
0!
03
#2205000
1!
1'
13
b0 ;
1<
1?
#2210000
0!
03
#2215000
1!
13
b1 ;
1>
0?
b1 D
#2220000
0!
03
#2225000
1!
0'
13
b0 ;
0<
1@
b110 M
#2230000
0!
03
#2235000
1!
1(
13
18
b1 ;
0>
0@
b10101010 A
#2240000
0!
03
#2245000
1!
1'
13
b0 ;
1<
1?
#2250000
0!
03
#2255000
1!
13
b1 ;
1>
0?
b10 D
#2260000
0!
03
#2265000
1!
0'
13
b0 ;
0<
1@
b101 M
#2270000
0!
03
#2275000
1!
0(
13
08
b1 ;
0>
0@
b1010100 A
#2280000
0!
03
#2285000
1!
1'
13
b0 ;
1<
1?
#2290000
0!
03
#2295000
1!
13
b1 ;
1>
0?
b11 D
#2300000
0!
03
#2305000
1!
0'
13
b0 ;
0<
1@
b100 M
#2310000
0!
03
#2315000
1!
1(
13
18
b1 ;
0>
0@
b10101000 A
#2320000
0!
03
#2325000
1!
1'
13
b0 ;
1<
1?
#2330000
0!
03
#2335000
1!
13
b1 ;
1>
0?
b100 D
#2340000
0!
03
#2345000
1!
0'
13
b0 ;
0<
1@
b11 M
#2350000
0!
03
#2355000
1!
0(
13
08
b1 ;
0>
0@
b1010000 A
#2360000
0!
03
#2365000
1!
1'
13
b0 ;
1<
1?
#2370000
0!
03
#2375000
1!
13
b1 ;
1>
0?
b101 D
#2380000
0!
03
#2385000
1!
0'
13
b0 ;
0<
1@
b10 M
#2390000
0!
03
#2395000
1!
1(
13
18
b1 ;
0>
0@
b10100000 A
#2400000
0!
03
#2405000
1!
1'
13
b0 ;
1<
1?
#2410000
0!
03
#2415000
1!
13
b1 ;
1>
0?
b110 D
#2420000
0!
03
#2425000
1!
0'
13
b0 ;
0<
1@
b1 M
#2430000
0!
03
#2435000
1!
0(
13
08
b1 ;
0>
0@
b1000000 A
#2440000
0!
03
#2445000
1!
1'
13
b0 ;
1<
1?
#2450000
0!
03
#2455000
1!
13
b1 ;
1>
0?
b111 D
#2460000
0!
03
#2465000
1!
0'
13
b0 ;
0<
1@
b0 M
#2470000
0!
03
#2475000
1!
1(
13
18
b1 ;
0>
0@
b10000000 A
#2480000
0!
03
#2485000
1!
1'
13
b0 ;
1<
1?
#2490000
0!
03
#2495000
1!
0'
13
b1 ;
0=
1>
0?
b0 D
b11 F
b11111111111111111111111111111111 M
#2500000
0!
03
#2505000
1!
0'
0(
13
08
b0 ;
0<
#2510000
0!
03
#2515000
1!
13
0>
#2520000
0!
03
#2525000
1!
b1010 +
13
b111010001101001011011000110110000100000001100000010000001110111011010000110100101101100011001010010000001000011010011100101010001001100001111010011000100110001 \
#2530000
0!
03
#2535000
1!
13
#2536000
b0 #
b0 5
b0 R
#2540000
0!
03
#2545000
1!
1&
13
0E
b0 F
b1 R
#2550000
0!
03
#2555000
1!
0"
b0 #
b0 $
b1011 +
13
04
b0 6
b0 A
b10 R
1Z
1[
b10000001100001011001100111010001100101011100100010000001000011010011100101010001001100001000000111001001100101011011000110010101100001011100110110010101100100 \
#2560000
0!
03
#2565000
1!
13
#2570000
0!
03
#2575000
1!
13
#2580000
0!
03
#2585000
1!
13
#2590000
0!
03
#2595000
1!
1"
13
14
#2600000
0!
03
#2605000
1!
13
#2610000
0!
03
#2615000
1!
13
b11111111 Q
#2620000
0!
03
#2625000
1!
13
#2626000
b1 #
b11111111 $
b1 5
b11111111 6
#2630000
0!
03
#2635000
1!
13
b11111111 A
#2636000
b0 #
b0 5
b10 P
b101 Q
#2640000
0!
03
#2645000
1!
13
#2646000
b10 #
b101 $
b10 5
b101 6
#2650000
0!
03
#2655000
1!
13
b11011111 C
#2656000
b0 #
b0 5
#2660000
0!
03
#2665000
1!
13
#2666000
b11 #
b11 5
#2670000
0!
03
#2675000
1!
0&
13
1E
b1 F
#2680000
0!
03
#2685000
1!
0'
1(
b11011111 *
13
18
b11011111 :
1=
b10 F
#2690000
0!
03
#2695000
1!
1)
b1100 +
13
19
b1 ;
b111 N
b11011111 W
b11011111 X
b11000100110001001100010011000100100000011001000111010101110010011010010110111001100111001000000111010001110010011000010110111001110011011001100110010101110010 Y
#2700000
0!
03
#2705000
1!
1'
13
b0 ;
1<
1?
#2710000
0!
03
#2715000
1!
13
b1 ;
1>
0?
b1 B
b1 D
#2720000
0!
03
#2725000
1!
0'
13
b0 ;
0<
1@
b110 N
#2730000
0!
03
#2735000
1!
13
b1 ;
0>
0@
b11111110 A
#2740000
0!
03
#2745000
1!
1'
13
b0 ;
1<
1?
#2750000
0!
03
#2755000
1!
13
b1 ;
1>
0?
b11 B
b10 D
#2760000
0!
03
#2765000
1!
0'
13
b0 ;
0<
1@
b101 N
#2770000
0!
03
#2775000
1!
13
b1 ;
0>
0@
b11111100 A
#2780000
0!
03
#2785000
1!
1'
13
b0 ;
1<
1?
#2790000
0!
03
#2795000
1!
13
b1 ;
1>
0?
b111 B
b11 D
#2800000
0!
03
#2805000
1!
0'
13
b0 ;
0<
1@
b100 N
#2810000
0!
03
#2815000
1!
13
b1 ;
0>
0@
b11111000 A
#2820000
0!
03
#2825000
1!
1'
13
b0 ;
1<
1?
#2830000
0!
03
#2835000
1!
13
b1 ;
1>
0?
b1111 B
b100 D
#2840000
0!
03
#2845000
1!
0'
13
b0 ;
0<
1@
b11 N
#2850000
0!
03
#2855000
1!
13
b1 ;
0>
0@
b11110000 A
#2860000
0!
03
#2865000
1!
1'
13
b0 ;
1<
1?
#2870000
0!
03
#2875000
1!
13
b1 ;
1>
0?
b11111 B
b101 D
#2880000
0!
03
#2885000
1!
0'
13
b0 ;
0<
1@
b10 N
#2890000
0!
03
#2895000
1!
13
b1 ;
0>
0@
b11100000 A
#2900000
0!
03
#2905000
1!
1'
13
b0 ;
1<
1?
#2910000
0!
03
#2915000
1!
13
b1 ;
1>
0?
b111111 B
b110 D
#2920000
0!
03
#2925000
1!
0'
13
b0 ;
0<
1@
b1 N
#2930000
0!
03
#2935000
1!
13
b1 ;
0>
0@
b11000000 A
#2940000
0!
03
#2945000
1!
1'
13
b0 ;
1<
1?
#2950000
0!
03
#2955000
1!
13
b1 ;
1>
0?
b1111111 B
b111 D
#2960000
0!
03
#2965000
1!
0'
13
b0 ;
0<
1@
b0 N
#2970000
0!
03
#2975000
1!
13
b1 ;
0>
0@
b10000000 A
#2980000
0!
03
#2985000
1!
1'
13
b0 ;
1<
1?
#2990000
0!
03
#2995000
1!
b11111111 %
0'
13
b11111111 7
b1 ;
0=
1>
0?
b11111111 B
b0 D
b11 F
b11111111111111111111111111111111 N
#3000000
0!
03
#3005000
1!
0'
0(
b11111111 *
13
08
b11111111 :
b0 ;
0<
#3006000
b0 #
b0 5
b0 R
#3010000
0!
03
#3015000
1!
1&
13
0>
0E
b0 F
b1 R
#3020000
0!
03
#3025000
1!
0"
b0 #
b0 $
b0 %
0)
b1101 +
13
04
b0 6
b0 7
09
b0 A
b0 B
b11111111 C
b10 R
b11111111 W
b11111111 X
b11110100110000011110000100011001000110001000000110000101100110011101000110010101110010001000000111010001110010011000010110111001110011011001100110010101110010 Y
#3030000
0!
03
#3035000
1!
13
#3040000
0!
03
#3045000
1!
13
#3050000
0!
03
#3055000
1!
13
#3060000
0!
03
#3065000
1!
1"
13
14
#3070000
0!
03
#3075000
1!
13
#3080000
0!
03
#3085000
1!
13
b1 P
b11001100 Q
#3090000
0!
03
#3095000
1!
13
#3096000
b1 #
b11001100 $
b1 5
b11001100 6
#3100000
0!
03
#3105000
1!
13
b11001100 A
#3106000
b0 #
b0 5
b10 P
b10 Q
#3110000
0!
03
#3115000
1!
13
#3116000
b10 #
b10 $
b10 5
b10 6
#3120000
0!
03
#3125000
1!
13
b11111011 C
#3126000
b0 #
b0 5
#3130000
0!
03
#3135000
1!
13
#3136000
b11 #
b11 5
#3140000
0!
03
#3145000
1!
0&
13
1E
b1 F
#3150000
0!
03
#3155000
1!
0'
1(
b11111011 *
13
18
b11111011 :
1=
b10 F
#3156000
b1 #
b11011110 $
b1 5
b11011110 6
#3160000
0!
03
#3165000
1!
13
b1 ;
#3166000
b11 #
b11 5
b111 O
#3170000
0!
03
#3175000
1!
1'
13
b0 ;
1<
1?
#3180000
0!
03
#3185000
1!
13
b1 ;
1>
0?
b1 D
#3190000
0!
03
#3195000
1!
0'
13
b0 ;
0<
1@
b110 O
#3200000
0!
03
#3205000
1!
13
b1 ;
0>
0@
b10011000 A
#3210000
0!
03
#3215000
1!
1'
13
b0 ;
1<
1?
#3220000
0!
03
#3225000
1!
13
b1 ;
1>
0?
b10 D
#3230000
0!
03
#3235000
1!
0'
13
b0 ;
0<
1@
b101 O
#3240000
0!
03
#3245000
1!
0(
13
08
b1 ;
0>
0@
b110000 A
#3250000
0!
03
#3255000
1!
1'
13
b0 ;
1<
1?
#3260000
0!
03
#3265000
1!
13
b1 ;
1>
0?
b11 D
#3270000
0!
03
#3275000
1!
0'
13
b0 ;
0<
1@
b100 O
#3280000
0!
03
#3285000
1!
13
b1 ;
0>
0@
b1100000 A
#3290000
0!
03
#3295000
1!
1'
13
b0 ;
1<
1?
#3300000
0!
03
#3305000
1!
13
b1 ;
1>
0?
b100 D
