SPI_Communication/SPI_Communication.sim/sim_1/behav/xsim/spi_master_tb.vcd
$date
   Sat May 16 19:45:40 2026
$end

$version
  2025.2
  $dumpfile ("spi_master_tb.vcd") 
$end

$timescale
  1ps
$end

$scope module spi_master_tb $end
$var reg 1 ! refclk $end
$var reg 1 " rst_n $end
$var reg 2 # cntl [1:0] $end
$var reg 8 $ input_data [7:0] $end
$var wire 8 % output_data [7:0] $end
$var wire 1 & ready $end
$var wire 1 ' sclk $end
$var wire 1 ( mosi $end
$var reg 1 ) miso $end
$var wire 8 * ss [7:0] $end
$var integer 32 + pass_cnt [31:0] $end
$var integer 32 , fail_cnt [31:0] $end
$var reg 8 - mosi_captured [7:0] $end
$var reg 8 . captured_mosi [7:0] $end
$var reg 8 / tmp [7:0] $end
$scope module dut $end
$var wire 1 0 refclk $end
$var wire 1 1 rst_n $end
$var wire 2 2 cntl [1:0] $end
$var wire 8 3 input_data [7:0] $end
$var reg 8 4 output_data [7:0] $end
$var wire 1 & ready $end
$var wire 1 ' sclk $end
$var reg 1 5 mosi $end
$var wire 1 6 miso $end
$var reg 8 7 ss [7:0] $end
$var reg 2 8 pre_cnt [1:0] $end
$var reg 1 9 sclk_r $end
$var reg 1 : sclk_en $end
$var reg 1 ; sclk_prev $end
$var wire 1 < sclk_rise $end
$var wire 1 = sclk_fall $end
$var reg 8 > tx_sr [7:0] $end
$var reg 8 ? rx_sr [7:0] $end
$var reg 8 @ ss_reg [7:0] $end
$var reg 3 A bit_cnt [2:0] $end
$var reg 1 B busy $end
$var reg 2 C state [1:0] $end
$upscope $end
$scope begin tc3_cleanup $end
$var integer 32 D j [31:0] $end
$upscope $end
$scope begin tc7_drive $end
$var integer 32 E j [31:0] $end
$upscope $end
$scope begin tc8_drive $end
$var integer 32 F j [31:0] $end
$upscope $end
$scope begin tc9_drive $end
$var integer 32 G j [31:0] $end
$upscope $end
$scope task do_reset $end
$upscope $end
$scope task apply_cntl $end
$var reg 2 H cmd [1:0] $end
$var reg 8 I data [7:0] $end
$upscope $end
$scope task wait_ready $end
$var integer 32 J timeout [31:0] $end
$upscope $end
$scope task do_transfer $end
$var reg 8 K miso_byte [7:0] $end
$var reg 8 L mosi_byte [7:0] $end
$var integer 32 M i [31:0] $end
$var reg 8 N captured [7:0] $end
$upscope $end
$scope task check8 $end
$var reg 8 O got [7:0] $end
$var reg 8 P expected [7:0] $end
$var reg 160 Q name [159:0] $end
$upscope $end
$scope task check1 $end
$var reg 1 R got $end
$var reg 1 S expected $end
$var reg 160 T name [159:0] $end
$upscope $end
$upscope $end
$enddefinitions $end

#0
$dumpvars
0!
0"
b0 #
b0 $
b0 %
1&
0'
0(
0)
b11111111 *
b0 +
b0 ,
bx -
bx .
bx /
00
01
b0 2
b0 3
b0 4
05
06
b11111111 7
b0 8
09
0:
0;
0<
0=
b0 >
b0 ?
b11111111 @
b0 A
0B
b0 C
bx D
bx E
bx F
bx G
bx H
bx I
bx J
bx K
bx L
bx M
bx N
bx O
bx P
bx Q
xR
xS
bx T
$end

#5000
1!
10

#10000
0!
00

#15000
1!
10

#20000
0!
00

#25000
1!
10

#30000
0!
00

#35000
1!
1"
10
11

#40000
0!
00

#45000
1!
10

#50000
0!
00

#55000
1!
10
b1 H
b10100101 I

#60000
0!
00

#65000
1!
10

#66000
b1 #
b10100101 $
b1 2
b10100101 3

#70000
0!
00

#75000
1!
10
b10100101 >

#76000
b0 #
b0 2

#80000
0!
00

#85000
1!
10

#90000
0!
00

#95000
1!
0"
b0 $
b1 +
10
01
b0 3
b0 >
1R
1S
b111010001100001011110010111001100100000010010000100100101000111010010000010000001100001011001100111010001100101011100100010000001101100011011110110000101100100 T

#100000
0!
00

#105000
1!
10

#110000
0!
00

#115000
1!
10

#120000
0!
00

#125000
1!
10

#130000
0!
00

#135000
1!
1"
10
11

#140000
0!
00

#145000
1!
10

#150000
0!
00

#155000
1!
10
b10 H
b11 I

#160000
0!
00

#165000
1!
10

#166000
b10 #
b11 $
b10 2
b11 3

#170000
0!
00

#175000
1!
10
b11110111 @

#176000
b0 #
b0 2

#180000
0!
00

#185000
1!
10

#190000
0!
00

#195000
1!
0"
b0 $
b10 +
10
01
b0 3
b11111111 @
b100100001001001010001110100100000100000011000010110011001110100011001010111001000100000011000010110010001100100011100100010000001101100011011110110000101100100 T

#200000
0!
00

#205000
1!
10

#210000
0!
00

#215000
1!
10

#220000
0!
00

#225000
1!
10

#230000
0!
00

#235000
1!
1"
10
11

#240000
0!
00

#245000
1!
10

#250000
0!
00

#255000
1!
10
b1 H
b10111011 I

#260000
0!
00

#265000
1!
10

#266000
b1 #
b10111011 $
b1 2
b10111011 3

#270000
0!
00

#275000
1!
10
b10111011 >

#276000
b0 #
b0 2
b10 H
b11001000 I

#280000
0!
00

#285000
1!
10

#286000
b10 #
b11001000 $
b10 2
b11001000 3

#290000
0!
00

#295000
1!
10

#296000
b0 #
b0 2

#300000
0!
00

#305000
1!
10

#306000
b11 #
b11 2

#310000
0!
00

#315000
1!
0&
10
1B
b1 C

#320000
0!
00

#325000
1!
1(
10
15
1:
b10 C

#330000
0!
00

#335000
1!
b11 +
10
b1 8
b0 D
b11111111 O
b11111111 P
b110000101110110011001010010100100100000011001000111010101110010011010010110111001100111001000000111010001110010011000010110111001110011011001100110010101110010 Q

#340000
0!
00

#345000
1!
10
b10 8

#350000
0!
00

#355000
1!
10
b11 8

#360000
0!
00

#365000
1!
1'
10
b0 8
19
1<

#370000
0!
00

#375000
1!
10
b1 8
1;
0<
b1 A

#380000
0!
00

#385000
1!
10
b10 8

#390000
0!
00

#395000
1!
10
b11 8

#400000
0!
00

#405000
1!
0'
10
b0 8
09
1=
b1 D

#410000
0!
00

#415000
1!
0(
10
05
b1 8
0;
0=
b1110110 >

#420000
0!
00

#425000
1!
10
b10 8

#430000
0!
00

#435000
1!
10
b11 8

#440000
0!
00

#445000
1!
1'
10
b0 8
19
1<

#450000
0!
00

#455000
1!
10
b1 8
1;
0<
b10 A

#460000
0!
00

#465000
1!
10
b10 8

#470000
0!
00

#475000
1!
10
b11 8

#480000
0!
00

#485000
1!
0'
10
b0 8
09
1=
b10 D

#490000
0!
00

#495000
1!
1(
10
15
b1 8
0;
0=
b11101100 >

#500000
0!
00

#505000
1!
10
b10 8

#510000
0!
00

#515000
1!
10
b11 8

#520000
0!
00

#525000
1!
1'
10
b0 8
19
1<

#530000
0!
00

#535000
1!
10
b1 8
1;
0<
b11 A

#540000
0!
00

#545000
1!
10
b10 8

#550000
0!
00

#555000
1!
10
b11 8

#560000
0!
00

#565000
1!
0'
10
b0 8
09
1=
b11 D

#570000
0!
00

#575000
1!
10
b1 8
0;
0=
b11011000 >

#580000
0!
00

#585000
1!
10
b10 8

#590000
0!
00

#595000
1!
10
b11 8

#600000
0!
00

#605000
1!
1'
10
b0 8
19
1<

#610000
0!
00

#615000
1!
10
b1 8
1;
0<
b100 A

#620000
0!
00

#625000
1!
10
b10 8

#630000
0!
00

#635000
1!
10
b11 8

#640000
0!
00

#645000
1!
0'
10
b0 8
09
1=
b100 D

#650000
0!
00

#655000
1!
10
b1 8
0;
0=
b10110000 >

#660000
0!
00

#665000
1!
10
b10 8

#670000
0!
00

#675000
1!
10
b11 8

#680000
0!
00

#685000
1!
1'
10
b0 8
19
1<

#690000
0!
00

#695000
1!
10
b1 8
1;
0<
b101 A

#700000
0!
00

#705000
1!
10
b10 8

#710000
0!
00

#715000
1!
10
b11 8

#720000
0!
00

#725000
1!
0'
10
b0 8
09
1=
b101 D

#730000
0!
00

#735000
1!
0(
10
05
b1 8
0;
0=
b1100000 >

#740000
0!
00

#745000
1!
10
b10 8

#750000
0!
00

#755000
1!
10
b11 8

#760000
0!
00

#765000
1!
1'
10
b0 8
19
1<

#770000
0!
00

#775000
1!
10
b1 8
1;
0<
b110 A

#780000
0!
00

#785000
1!
10
b10 8

#790000
0!
00

#795000
1!
10
b11 8

#800000
0!
00

#805000
1!
0'
10
b0 8
09
1=
b110 D

#810000
0!
00

#815000
1!
1(
10
15
b1 8
0;
0=
b11000000 >

#820000
0!
00

#825000
1!
10
b10 8

#830000
0!
00

#835000
1!
10
b11 8

#840000
0!
00

#845000
1!
1'
10
b0 8
19
1<

#850000
0!
00

#855000
1!
10
b1 8
1;
0<
b111 A

#860000
0!
00

#865000
1!
10
b10 8

#870000
0!
00

#875000
1!
10
b11 8

#880000
0!
00

#885000
1!
0'
10
b0 8
09
1=
b111 D

#890000
0!
00

#895000
1!
10
b1 8
0;
0=
b10000000 >

#900000
0!
00

#905000
1!
10
b10 8

#910000
0!
00

#915000
1!
10
b11 8

#920000
0!
00

#925000
1!
1'
10
b0 8
19
1<

#930000
0!
00

#935000
1!
0'
10
b1 8
0:
1;
0<
b0 A
b11 C
b1000 D

#940000
0!
00

#945000
1!
0(
10
05
b0 8
09

#946000
b0 #
b0 2
b0 J

#950000
0!
00

#955000
1!
1&
10
0;
0B
b0 C
b1 J

#960000
0!
00

#965000
1!
0"
b0 $
10
01
b0 3
b0 >
b10 J

#970000
0!
00

#975000
1!
10

#980000
0!
00

#985000
1!
10

#990000
0!
00

#995000
1!
10

#1000000
0!
00

#1005000
1!
1"
10
11

#1010000
0!
00

#1015000
1!
10

#1020000
0!
00

#1025000
1!
10
b1 H
b10100101 I

#1030000
0!
00

#1035000
1!
10

#1036000
b1 #
b10100101 $
b1 2
b10100101 3

#1040000
0!
00

#1045000
1!
10
b10100101 >

#1046000
b0 #
b0 2
b10 H
b11 I

#1050000
0!
00

#1055000
1!
10

#1056000
b10 #
b11 $
b10 2
b11 3

#1060000
0!
00

#1065000
1!
10
b11110111 @

#1066000
b0 #
b0 2
b0 K
b0 N

#1070000
0!
00

#1075000
1!
10

#1076000
b11 #
b11 2

#1080000
0!
00

#1085000
1!
0&
10
1B
b1 C
b111 M

#1090000
0!
00

#1095000
1!
1(
b11110111 *
10
15
b11110111 7
1:
b10 C

#1100000
0!
00

#1105000
1!
10
b1 8

#1110000
0!
00

#1115000
1!
10
b10 8

#1120000
0!
00

#1125000
1!
10
b11 8

#1130000
0!
00

#1135000
1!
1'
10
b0 8
19
1<
b10000000 N

#1140000
0!
00

#1145000
1!
10
b1 8
1;
0<
b1 A

#1150000
0!
00

#1155000
1!
10
b10 8

#1160000
0!
00

#1165000
1!
10
b11 8

#1170000
0!
00

#1175000
1!
0'
10
b0 8
09
1=
b110 M

#1180000
0!
00

#1185000
1!
0(
10
05
b1 8
0;
0=
b1001010 >

#1190000
0!
00

#1195000
1!
10
b10 8

#1200000
0!
00

#1205000
1!
10
b11 8

#1210000
0!
00

#1215000
1!
1'
10
b0 8
19
1<

#1220000
0!
00

#1225000
1!
10
b1 8
1;
0<
b10 A

#1230000
0!
00

#1235000
1!
10
b10 8

#1240000
0!
00

#1245000
1!
10
b11 8

#1250000
0!
00

#1255000
1!
0'
10
b0 8
09
1=
b101 M

#1260000
0!
00

#1265000
1!
1(
10
15
b1 8
0;
0=
b10010100 >

#1270000
0!
00

#1275000
1!
10
b10 8

#1280000
0!
00

#1285000
1!
10
b11 8

#1290000
0!
00

#1295000
1!
1'
10
b0 8
19
1<
b10100000 N

#1300000
0!
00

#1305000
1!
10
b1 8
1;
0<
b11 A

#1310000
0!
00

#1315000
1!
10
b10 8

#1320000
0!
00

#1325000
1!
10
b11 8

#1330000
0!
00

#1335000
1!
0'
10
b0 8
09
1=
b100 M

#1340000
0!
00

#1345000
1!
0(
10
05
b1 8
0;
0=
b101000 >

#1350000
0!
00

#1355000
1!
10
b10 8

#1360000
0!
00

#1365000
1!
10
b11 8

#1370000
0!
00

#1375000
1!
1'
10
b0 8
19
1<

#1380000
0!
00

#1385000
1!
10
b1 8
1;
0<
b100 A

#1390000
0!
00

#1395000
1!
10
b10 8

#1400000
0!
00

#1405000
1!
10
b11 8

#1410000
0!
00

#1415000
1!
0'
10
b0 8
09
1=
b11 M

#1420000
0!
00

#1425000
1!
10
b1 8
0;
0=
b1010000 >

#1430000
0!
00

#1435000
1!
10
b10 8

#1440000
0!
00

#1445000
1!
10
b11 8

#1450000
0!
00

#1455000
1!
1'
10
b0 8
19
1<

#1460000
0!
00

#1465000
1!
10
b1 8
1;
0<
b101 A

#1470000
0!
00

#1475000
1!
10
b10 8

#1480000
0!
00

#1485000
1!
10
b11 8

#1490000
0!
00

#1495000
1!
0'
10
b0 8
09
1=
b10 M

#1500000
0!
00

#1505000
1!
1(
10
15
b1 8
0;
0=
b10100000 >

#1510000
0!
00

#1515000
1!
10
b10 8

#1520000
0!
00

#1525000
1!
10
b11 8

#1530000
0!
00

#1535000
1!
1'
10
b0 8
19
1<
b10100100 N

#1540000
0!
00

#1545000
1!
10
b1 8
1;
0<
b110 A

#1550000
0!
00

#1555000
1!
10
b10 8

#1560000
0!
00

#1565000
1!
10
b11 8

#1570000
0!
00

#1575000
1!
0'
10
b0 8
09
1=
b1 M

#1580000
0!
00

#1585000
1!
0(
10
05
b1 8
0;
0=
b1000000 >

#1590000
0!
00

#1595000
1!
10
b10 8

#1600000
0!
00

#1605000
1!
10
b11 8

#1610000
0!
00

#1615000
1!
1'
10
b0 8
19
1<

#1620000
0!
00

#1625000
1!
10
b1 8
1;
0<
b111 A

#1630000
0!
00

#1635000
1!
10
b10 8

#1640000
0!
00

#1645000
1!
10
b11 8

#1650000
0!
00

#1655000
1!
0'
10
b0 8
09
1=
b0 M

#1660000
0!
00

#1665000
1!
1(
10
15
b1 8
0;
0=
b10000000 >

#1670000
0!
00

#1675000
1!
10
b10 8

#1680000
0!
00

#1685000
1!
10
b11 8

#1690000
0!
00

#1695000
1!
1'
10
b0 8
19
1<
b10100101 N

#1700000
0!
00

#1705000
1!
0'
10
b1 8
0:
1;
0<
b0 A
b11 C
b11111111111111111111111111111111 M

#1710000
0!
00

#1715000
1!
0(
b11111111 *
10
05
b11111111 7
b0 8
09

#1716000
b0 #
b0 2
b0 J

#1720000
0!
00

#1725000
1!
1&
10
0;
0B
b0 C
b1 J

#1730000
0!
00

#1735000
1!
0"
b0 $
b100 +
b10100101 .
10
01
b0 3
b0 >
b11111111 @
b10 J
b10100101 L
b10100101 O
b10100101 P
b111001001100101011001000010000001100010011110010010000001101101011000010111001101110100011001010111001000100000001010000011000001111000010000010011010100101001 Q

#1740000
0!
00

#1745000
1!
10

#1750000
0!
00

#1755000
1!
10

#1760000
0!
00

#1765000
1!
10

#1770000
0!
00

#1775000
1!
1"
10
11

#1780000
0!
00

#1785000
1!
10

#1790000
0!
00

#1795000
1!
10
b1 H
b0 I

#1800000
0!
00

#1805000
1!
10

#1806000
b1 #
b1 2

#1810000
0!
00

#1815000
1!
10

#1816000
b0 #
b0 2
b10 H

#1820000
0!
00

#1825000
1!
10

#1826000
b10 #
b10 2

#1830000
0!
00

#1835000
1!
10
b11111110 @

#1836000
b0 #
b0 2
b111100 K
b0 N

#1840000
0!
00

#1845000
1!
10

#1846000
b11 #
b11 2

#1850000
0!
00

#1855000
1!
0&
10
1B
b1 C
b111 M

#1860000
0!
00

#1865000
1!
b11111110 *
10
b11111110 7
1:
b10 C

#1870000
0!
00

#1875000
1!
10
b1 8

#1880000
0!
00

#1885000
1!
10
b10 8

#1890000
0!
00

#1895000
1!
10
b11 8

#1900000
0!
00

#1905000
1!
1'
10
b0 8
19
1<

#1910000
0!
00

#1915000
1!
10
b1 8
1;
0<
b1 A

#1920000
0!
00

#1925000
1!
10
b10 8

#1930000
0!
00

#1935000
1!
10
b11 8

#1940000
0!
00

#1945000
1!
0'
10
b0 8
09
1=
b110 M

#1950000
0!
00

#1955000
1!
10
b1 8
0;
0=

#1960000
0!
00

#1965000
1!
10
b10 8

#1970000
0!
00

#1975000
1!
10
b11 8

#1980000
0!
00

#1985000
1!
1'
10
b0 8
19
1<

#1990000
0!
00

#1995000
1!
10
b1 8
1;
0<
b10 A

#2000000
0!
00

#2005000
1!
10
b10 8

#2010000
0!
00

#2015000
1!
10
b11 8

#2020000
0!
00

#2025000
1!
0'
1)
10
16
b0 8
09
1=
b101 M

#2030000
0!
00

#2035000
1!
10
b1 8
0;
0=

#2040000
0!
00

#2045000
1!
10
b10 8

#2050000
0!
00

#2055000
1!
10
b11 8

#2060000
0!
00

#2065000
1!
1'
10
b0 8
19
1<

#2070000
0!
00

#2075000
1!
10
b1 8
1;
0<
b1 ?
b11 A

#2080000
0!
00

#2085000
1!
10
b10 8

#2090000
0!
00

#2095000
1!
10
b11 8

#2100000
0!
00

#2105000
1!
0'
10
b0 8
09
1=
b100 M

#2110000
0!
00

#2115000
1!
10
b1 8
0;
0=

#2120000
0!
00

#2125000
1!
10
b10 8

#2130000
0!
00

#2135000
1!
10
b11 8

#2140000
0!
00

#2145000
1!
1'
10
b0 8
19
1<

#2150000
0!
00

#2155000
1!
10
b1 8
1;
0<
b11 ?
b100 A

#2160000
0!
00

#2165000
1!
10
b10 8

#2170000
0!
00

#2175000
1!
10
b11 8

#2180000
0!
00

#2185000
1!
0'
10
b0 8
09
1=
b11 M

#2190000
0!
00

#2195000
1!
10
b1 8
0;
0=

#2200000
0!
00

#2205000
1!
10
b10 8

#2210000
0!
00

#2215000
1!
10
b11 8

#2220000
0!
00

#2225000
1!
1'
10
b0 8
19
1<

#2230000
0!
00

#2235000
1!
10
b1 8
1;
0<
b111 ?
b101 A

#2240000
0!
00

#2245000
1!
10
b10 8

#2250000
0!
00

#2255000
1!
10
b11 8

#2260000
0!
00

#2265000
1!
0'
10
b0 8
09
1=
b10 M

#2270000
0!
00

#2275000
1!
10
b1 8
0;
0=

#2280000
0!
00

#2285000
1!
10
b10 8

#2290000
0!
00

#2295000
1!
10
b11 8

#2300000
0!
00

#2305000
1!
1'
10
b0 8
19
1<

#2310000
0!
00

#2315000
1!
10
b1 8
1;
0<
b1111 ?
b110 A

#2320000
0!
00

#2325000
1!
10
b10 8

#2330000
0!
00

#2335000
1!
10
b11 8

#2340000
0!
00

#2345000
1!
0'
0)
10
06
b0 8
09
1=
b1 M

#2350000
0!
00

#2355000
1!
10
b1 8
0;
0=

#2360000
0!
00

#2365000
1!
10
b10 8

#2370000
0!
00

#2375000
1!
10
b11 8

#2380000
0!
00

#2385000
1!
1'
10
b0 8
19
1<

#2390000
0!
00

#2395000
1!
10
b1 8
1;
0<
b11110 ?
b111 A

#2400000
0!
00

#2405000
1!
10
b10 8

#2410000
0!
00

#2415000
1!
10
b11 8

#2420000
0!
00

#2425000
1!
0'
10
b0 8
09
1=
b0 M

#2430000
0!
00

#2435000
1!
10
b1 8
0;
0=

#2440000
0!
00

#2445000
1!
10
b10 8

#2450000
0!
00

#2455000
1!
10
b11 8

#2460000
0!
00

#2465000
1!
1'
10
b0 8
19
1<

#2470000
0!
00

#2475000
1!
b111100 %
0'
10
b111100 4
b1 8
0:
1;
0<
b111100 ?
b0 A
b11 C
b11111111111111111111111111111111 M

#2480000
0!
00

#2485000
1!
b11111111 *
10
b11111111 7
b0 8
09

#2486000
b0 #
b0 2
b0 J

#2490000
0!
00

#2495000
1!
1&
10
0;
0B
b0 C
b1 J

#2500000
0!
00

#2505000
1!
0"
b0 %
b101 +
b0 .
10
01
b0 4
b0 ?
b11111111 @
b10 J
b0 L
b111100 O
b111100 P
b101010101010100010100000101010101010100001111010011000001111000001100110100001100100000011001100111001001101111011011010010000001001101010010010101001101001111 Q

#2510000
0!
00

#2515000
1!
10

#2520000
0!
00

#2525000
1!
10

#2530000
0!
00

#2535000
1!
10

#2540000
0!
00

#2545000
1!
1"
10
11

#2550000
0!
00

#2555000
1!
10

#2560000
0!
00

#2565000
1!
10
b1 H
b10110111 I

#2570000
0!
00

#2575000
1!
10

#2576000
b1 #
b10110111 $
b1 2
b10110111 3

#2580000
0!
00

#2585000
1!
10
b10110111 >

#2586000
b0 #
b0 2
b10 H
b1 I

#2590000
0!
00

#2595000
1!
10

#2596000
b10 #
b1 $
b10 2
b1 3

#2600000
0!
00

#2605000
1!
10
b11111101 @

#2606000
b0 #
b0 2
b1001110 K

#2610000
0!
00

#2615000
1!
10

#2616000
b11 #
b11 2

#2620000
0!
00

#2625000
1!
0&
10
1B
b1 C
b111 M

#2630000
0!
00

#2635000
1!
1(
b11111101 *
10
15
b11111101 7
1:
b10 C

#2640000
0!
00

#2645000
1!
10
b1 8

#2650000
0!
00

#2655000
1!
10
b10 8

#2660000
0!
00

#2665000
1!
10
b11 8

#2670000
0!
00

#2675000
1!
1'
10
b0 8
19
1<
b10000000 N

#2680000
0!
00

#2685000
1!
10
b1 8
1;
0<
b1 A

#2690000
0!
00

#2695000
1!
10
b10 8

#2700000
0!
00

#2705000
1!
10
b11 8

#2710000
0!
00

#2715000
1!
0'
1)
10
16
b0 8
09
1=
b110 M

#2720000
0!
00

#2725000
1!
0(
10
05
b1 8
0;
0=
b1101110 >

#2730000
0!
00

#2735000
1!
10
b10 8

#2740000
0!
00

#2745000
1!
10
b11 8

#2750000
0!
00

#2755000
1!
1'
10
b0 8
19
1<

#2760000
0!
00

#2765000
1!
10
b1 8
1;
0<
b1 ?
b10 A

#2770000
0!
00

#2775000
1!
10
b10 8

#2780000
0!
00

#2785000
1!
10
b11 8

#2790000
0!
00

#2795000
1!
0'
0)
10
06
b0 8
09
1=
b101 M

#2800000
0!
00

#2805000
1!
1(
10
15
b1 8
0;
0=
b11011100 >

#2810000
0!
00

#2815000
1!
10
b10 8

#2820000
0!
00

#2825000
1!
10
b11 8

#2830000
0!
00

#2835000
1!
1'
10
b0 8
19
1<
b10100000 N

#2840000
0!
00

#2845000
1!
10
b1 8
1;
0<
b10 ?
b11 A

#2850000
0!
00

#2855000
1!
10
b10 8

#2860000
0!
00

#2865000
1!
10
b11 8

#2870000
0!
00

#2875000
1!
0'
10
b0 8
09
1=
b100 M

#2880000
0!
00

#2885000
1!
10
b1 8
0;
0=
b10111000 >

#2890000
0!
00

#2895000
1!
10
b10 8

#2900000
0!
00

#2905000
1!
10
b11 8

#2910000
0!
00

#2915000
1!
1'
10
b0 8
19
1<
b10110000 N

#2920000
0!
00

#2925000
1!
10
b1 8
1;
0<
b100 ?
b100 A

#2930000
0!
00

#2935000
1!
10
b10 8

#2940000
0!
00

#2945000
1!
10
b11 8

#2950000
0!
00

#2955000
1!
0'
1)
10
16
b0 8
09
1=
b11 M

#2960000
0!
00

#2965000
1!
0(
10
05
b1 8
0;
0=
b1110000 >

#2970000
0!
00

#2975000
1!
10
b10 8

#2980000
0!
00

#2985000
1!
10
b11 8

#2990000
0!
00

#2995000
1!
1'
10
b0 8
19
1<

#3000000
0!
00

#3005000
1!
10
b1 8
1;
0<
b1001 ?
b101 A

#3010000
0!
00

#3015000
1!
10
b10 8

#3020000
0!
00

#3025000
1!
10
b11 8

#3030000
0!
00

#3035000
1!
0'
10
b0 8
09
1=
b10 M

#3040000
0!
00

#3045000
1!
1(
10
15
b1 8
0;
0=
b11100000 >

#3050000
0!
00

#3055000
1!
10
b10 8

#3060000
0!
00

#3065000
1!
10
b11 8

#3070000
0!
00

#3075000
1!
1'
10
b0 8
19
1<
b10110100 N

#3080000
0!
00

#3085000
1!
10
b1 8
1;
0<
b10011 ?
b110 A

#3090000
0!
00

#3095000
1!
10
b10 8

#3100000
0!
00

#3105000
1!
10
b11 8

#3110000
0!
00

#3115000
1!
0'
10
b0 8
09
1=
b1 M

#3120000
0!
00

#3125000
1!
10
b1 8
0;
0=
b11000000 >

#3130000
0!
00

#3135000
1!
10
b10 8

#3140000
0!
00

#3145000
1!
10
b11 8

#3150000
0!
00

#3155000
1!
1'
10
b0 8
19
1<
b10110110 N

#3160000
0!
00

#3165000
1!
10
b1 8
1;
0<
b100111 ?
b111 A

#3170000
0!
00

#3175000
1!
10
b10 8

#3180000
0!
00

#3185000
1!
10
b11 8

#3190000
0!
00

#3195000
1!
0'
0)
10
06
b0 8
09
1=
b0 M

#3200000
0!
00

#3205000
1!
10
b1 8
0;
0=
b10000000 >

#3210000
0!
00

#3215000
1!
10
b10 8

#3220000
0!
00

#3225000
1!
10
b11 8

#3230000
0!
00

#3235000
1!
1'
10
b0 8
19
1<
b10110111 N

#3240000
0!
00

#3245000
1!
b1001110 %
0'
10
b1001110 4
b1 8
0:
1;
0<
b1001110 ?
b0 A
b11 C
b11111111111111111111111111111111 M

#3250000
0!
00

#3255000
1!
0(
b11111111 *
10
05
b11111111 7
b0 8
09

#3256000
b0 #
b0 2
b0 J

#3260000
0!
00

#3265000
1!
1&
10
0;
0B
b0 C
b1 J

#3270000
0!
00

#3275000
1!
0"
b0 $
b0 %
b111 +
b10110111 .
10
01
b0 3
b0 4
b0 >
b0 ?
b11111111 @
b10 J
b10110111 L
b1001110 O
b1001110 P
b10101000100001100110110001000000100111101010101010101000101000001010101010101000011110100110000011110000011010001000101 Q

#3280000
0!
00

#3285000
1!
10

#3290000
0!
00

#3295000
1!
10

#3300000
0!
00

#3305000
1!
10

#3310000
0!
00

#3315000
1!
1"
10
11

#3320000
0!
00

#3325000
1!
10

#3330000
0!
00

#3335000
1!
10
b1 H
b1010101 I

#3340000
0!
00

#3345000
1!
10

#3346000
b1 #
b1010101 $
b1 2
b1010101 3

#3350000
0!
00

#3355000
1!
10
b1010101 >

#3356000
b0 #
b1000 +
b0 2
b100010101000001010001000101100100100000011000100110010101100110011011110111001001100101001000000111010001110010011000010110111001110011011001100110010101110010 T

#3360000
0!
00

#3365000
1!
10

#3366000
b11 #
b11 2

#3370000
0!
00

#3375000
1!
0&
10
1B
b1 C

#3380000
0!
00

#3385000
1!
b1001 +
10
1:
b10 C
b111 E
0R
0S
b100010001011001001111010011000000100000011001000111010101110010011010010110111001100111001000000111010001110010011000010110111001110011011001100110010101110010 T

#3390000
0!
00

#3395000
1!
10
b1 8

#3400000
0!
00

#3405000
1!
10
b10 8

#3410000
0!
00

#3415000
1!
10
b11 8

#3420000
0!
00

#3425000
1!
1'
10
b0 8
19
1<

#3430000
0!
00

#3435000
1!
10
b1 8
1;
0<
b1 A

#3440000
0!
00

#3445000
1!
10
b10 8

#3450000
0!
00

#3455000
1!
10
b11 8

#3460000
0!
00

#3465000
1!
0'
10
b0 8
09
1=
b110 E

#3470000
0!
00

#3475000
1!
1(
10
15
b1 8
0;
0=
b10101010 >

#3480000
0!
00

#3485000
1!
10
b10 8

#3490000
0!
00

#3495000
1!
10
b11 8

#3500000
0!
00

#3505000
1!
1'
10
b0 8
19
1<

#3510000
0!
00

#3515000
1!
10
b1 8
1;
0<
b10 A

#3520000
0!
00

#3525000
1!
10
b10 8

#3530000
0!
00

#3535000
1!
10
b11 8

#3540000
0!
00

#3545000
1!
0'
10
b0 8
09
1=
b101 E

#3550000
0!
00

#3555000
1!
0(
10
05
b1 8
0;
0=
b1010100 >

#3560000
0!
00

#3565000
1!
10
b10 8

#3570000
0!
00

#3575000
1!
10
b11 8

#3580000
0!
00

#3585000
1!
1'
10
b0 8
19
1<

#3590000
0!
00

#3595000
1!
10
b1 8
1;
0<
b11 A

#3600000
0!
00

#3605000
1!
10
b10 8

#3610000
0!
00

#3615000
1!
10
b11 8

#3620000
0!
00

#3625000
1!
0'
10
b0 8
09
1=
b100 E

#3630000
0!
00

#3635000
1!
1(
10
15
b1 8
0;
0=
b10101000 >

#3640000
0!
00

#3645000
1!
10
b10 8

#3650000
0!
00

#3655000
1!
10
b11 8

#3660000
0!
00

#3665000
1!
1'
10
b0 8
19
1<

#3670000
0!
00

#3675000
1!
10
b1 8
1;
0<
b100 A

#3680000
0!
00

#3685000
1!
10
b10 8

#3690000
0!
00

#3695000
1!
10
b11 8

#3700000
0!
00

#3705000
1!
0'
10
b0 8
09
1=
b11 E

#3710000
0!
00

#3715000
1!
0(
10
05
b1 8
0;
0=
b1010000 >

#3720000
0!
00

#3725000
1!
10
b10 8

#3730000
0!
00

#3735000
1!
10
b11 8

#3740000
0!
00

#3745000
1!
1'
10
b0 8
19
1<

#3750000
0!
00

#3755000
1!
10
b1 8
1;
0<
b101 A

#3760000
0!
00

#3765000
1!
10
b10 8

#3770000
0!
00

#3775000
1!
10
b11 8

#3780000
0!
00

#3785000
1!
0'
10
b0 8
09
1=
b10 E

#3790000
0!
00

#3795000
1!
1(
10
15
b1 8
0;
0=
b10100000 >

#3800000
0!
00

#3805000
1!
10
b10 8

#3810000
0!
00

#3815000
1!
10
b11 8

#3820000
0!
00

#3825000
1!
1'
10
b0 8
19
1<

#3830000
0!
00

#3835000
1!
10
b1 8
1;
0<
b110 A

#3840000
0!
00

#3845000
1!
10
b10 8

#3850000
0!
00

#3855000
1!
10
b11 8

#3860000
0!
00

#3865000
1!
0'
10
b0 8
09
1=
b1 E

#3870000
0!
00

#3875000
1!
0(
10
05
b1 8
0;
0=
b1000000 >

#3880000
0!
00

#3885000
1!
10
b10 8

#3890000
0!
00

#3895000
1!
10
b11 8

#3900000
0!
00

#3905000
1!
1'
10
b0 8
19
1<

#3910000
0!
00

#3915000
1!
10
b1 8
1;
0<
b111 A

#3920000
0!
00

#3925000
1!
10
b10 8

#3930000
0!
00

#3935000
1!
10
b11 8

#3940000
0!
00

#3945000
1!
0'
10
b0 8
09
1=
b0 E

#3950000
0!
00

#3955000
1!
1(
10
15
b1 8
0;
0=
b10000000 >

#3960000
0!
00

#3965000
1!
10
b10 8

#3970000
0!
00

#3975000
1!
10
b11 8

#3980000
0!
00

#3985000
1!
1'
10
b0 8
19
1<

#3990000
0!
00

#3995000
1!
0'
10
b1 8
0:
1;
0<
b0 A
b11 C
b11111111111111111111111111111111 E

#4000000
0!
00

#4005000
1!
0(
10
05
b0 8
09

#4010000
0!
00

#4015000
1!
10
0;

#4020000
0!
00

#4025000
1!
b1010 +
10
b111010001101001011011000110110000100000001100000010000001110111011010000110100101101100011001010010000001000011010011100101010001001100001111010011000100110001 T

