spi_slave.sim/sim_1/behav/xsim/spi_slave_tb.vcd
$date
   Mon May 11 17:25:13 2026
$end
$version
  2018.2
$end
$timescale
  1ps
$end
$scope module spi_slave_tb $end
$var reg 1 ! clk $end
$var reg 1 " rst_n $end
$var reg 1 # sclk_r $end
$var reg 1 $ cs_r $end
$var reg 1 % mosi_r $end
$var reg 8 & input_data_r [7:0] $end
$var reg 1 ' load_r $end
$var wire 8 ( output_data_w [7:0] $end
$var wire 1 ) ready_w $end
$var wire 1 * miso_w $end
$var integer 32 + pass_cnt $end
$var integer 32 , fail_cnt $end
$var reg 8 - miso_rx [7:0] $end
$var parameter 32 . CLK_PERIOD [31:0] $end
$var parameter 32 / SCLK_PERIOD [31:0] $end
$var parameter 32 0 SCLK_HALF [31:0] $end
$scope module dut $end
$var wire 1 1 clk $end
$var wire 1 2 rst_n $end
$var wire 1 3 sclk $end
$var wire 1 4 cs $end
$var wire 1 5 mosi $end
$var wire 8 6 input_data [7:0] $end
$var wire 1 7 load $end
$var reg 8 8 output_data [7:0] $end
$var wire 1 ) ready $end
$var wire 1 * miso $end
$var reg 3 9 sclk_sync [2:0] $end
$var reg 3 : cs_sync [2:0] $end
$var reg 3 ; mosi_sync [2:0] $end
$var wire 1 < sclk_rise $end
$var wire 1 = sclk_fall $end
$var wire 1 > cs_sel $end
$var reg 8 ? tx_sr [7:0] $end
$var reg 8 @ rx_sr [7:0] $end
$var reg 3 A bit_cnt [2:0] $end
$var reg 1 B busy $end
$var reg 1 C miso_r $end
$upscope $end
$scope begin tc5_block $end
$var integer 32 D j $end
$upscope $end
$scope begin tc6_block $end
$var integer 32 E j $end
$upscope $end
$scope begin tc6b_block $end
$var integer 32 F j $end
$upscope $end
$scope begin tc7_block $end
$var integer 32 G j $end
$upscope $end
$scope task do_reset $end
$upscope $end
$scope task slave_load $end
$var reg 8 H data [7:0] $end
$upscope $end
$scope task spi_transfer $end
$var reg 8 I tx_byte [7:0] $end
$var reg 8 J rx_byte [7:0] $end
$var integer 32 K i $end
$upscope $end
$scope task spi_frame $end
$var reg 8 L tx_byte [7:0] $end
$var reg 8 M rx_byte [7:0] $end
$upscope $end
$scope task check $end
$var reg 8 N got [7:0] $end
$var reg 8 O expected [7:0] $end
$var reg 128 P test_name [127:0] $end
$upscope $end
$scope task check_bit $end
$var reg 1 Q got $end
$var reg 1 R expected $end
$var reg 128 S test_name [127:0] $end
$upscope $end
$upscope $end
$enddefinitions $end
#0
$dumpvars
0!
0"
0#
1$
0%
b0 &
0'
b0 (
1)
z*
b0 +
b0 ,
bx -
b1010 .
b1100100 /
b110010 0
01
02
03
14
05
b0 6
07
b0 8
b0 9
b111 :
b0 ;
0<
0=
0>
b0 ?
b0 @
b0 A
0B
0C
bx D
bx E
bx F
bx G
bx H
bx I
bx J
bx K
bx L
bx M
bx N
bx O
bx P
xQ
xR
bx S
$end
#5000
1!
11
#10000
0!
01
#15000
1!
11
#20000
0!
01
#25000
1!
11
#30000
0!
01
#35000
1!
1"
11
12
#40000
0!
01
#45000
1!
11
#50000
0!
01
#55000
1!
0"
b0 &
11
02
#60000
0!
01
#65000
1!
11
#70000
0!
01
#75000
1!
11
#80000
0!
01
#85000
1!
11
#90000
0!
01
#95000
1!
1"
11
12
#100000
0!
01
#105000
1!
11
#110000
0!
01
#115000
1!
0$
11
04
b110 :
b10100101 L
#120000
0!
01
#125000
1!
0*
11
b100 :
1>
#130000
0!
01
#135000
1!
11
b0 :
#140000
0!
01
#145000
1!
11
#150000
0!
01
#155000
1!
11
#160000
0!
01
#165000
1!
1%
11
15
b1 ;
b10100101 I
b0 J
b111 K
#170000
0!
01
#175000
1!
11
b11 ;
#180000
0!
01
#185000
1!
11
b111 ;
#190000
0!
01
#195000
1!
11
#200000
0!
01
#205000
1!
11
#210000
0!
01
#215000
1!
1#
11
13
b1 9
#220000
0!
01
#225000
1!
11
b11 9
1<
#230000
0!
01
#235000
1!
0)
11
b111 9
0<
b1 @
b1 A
1B
#240000
0!
01
#245000
1!
11
#250000
0!
01
#255000
1!
11
#260000
0!
01
#265000
1!
0#
0%
11
03
05
b110 9
b110 ;
b110 K
#270000
0!
01
#275000
1!
11
b100 9
b100 ;
1=
#280000
0!
01
#285000
1!
11
b0 9
b0 ;
0=
#290000
0!
01
#295000
1!
11
#300000
0!
01
#305000
1!
11
#310000
0!
01
#315000
1!
1#
11
13
b1 9
#320000
0!
01
#325000
1!
11
b11 9
1<
#330000
0!
01
#335000
1!
11
b111 9
0<
b10 @
b10 A
#340000
0!
01
#345000
1!
11
#350000
0!
01
#355000
1!
11
#360000
0!
01
#365000
1!
0#
1%
11
03
15
b110 9
b1 ;
b101 K
#370000
0!
01
#375000
1!
11
b100 9
b11 ;
1=
#380000
0!
01
#385000
1!
11
b0 9
b111 ;
0=
#390000
0!
01
#395000
1!
11
#400000
0!
01
#405000
1!
11
#410000
0!
01
#415000
1!
1#
11
13
b1 9
#420000
0!
01
#425000
1!
11
b11 9
1<
#430000
0!
01
#435000
1!
11
b111 9
0<
b101 @
b11 A
#440000
0!
01
#445000
1!
11
#450000
0!
01
#455000
1!
11
#460000
0!
01
#465000
1!
0#
0%
11
03
05
b110 9
b110 ;
b100 K
#470000
0!
01
#475000
1!
11
b100 9
b100 ;
1=
#480000
0!
01
#485000
1!
11
b0 9
b0 ;
0=
#490000
0!
01
#495000
1!
11
#500000
0!
01
#505000
1!
11
#510000
0!
01
#515000
1!
1#
11
13
b1 9
#520000
0!
01
#525000
1!
11
b11 9
1<
#530000
0!
01
#535000
1!
11
b111 9
0<
b1010 @
b100 A
#540000
0!
01
#545000
1!
11
#550000
0!
01
#555000
1!
11
#560000
0!
01
#565000
1!
0#
11
03
b110 9
b11 K
#570000
0!
01
#575000
1!
11
b100 9
1=
#580000
0!
01
#585000
1!
11
b0 9
0=
#590000
0!
01
#595000
1!
11
#600000
0!
01
#605000
1!
11
#610000
0!
01
#615000
1!
1#
11
13
b1 9
#620000
0!
01
#625000
1!
11
b11 9
1<
#630000
0!
01
#635000
1!
11
b111 9
0<
b10100 @
b101 A
#640000
0!
01
#645000
1!
11
#650000
0!
01
#655000
1!
11
#660000
0!
01
#665000
1!
0#
1%
11
03
15
b110 9
b1 ;
b10 K
#670000
0!
01
#675000
1!
11
b100 9
b11 ;
1=
#680000
0!
01
#685000
1!
11
b0 9
b111 ;
0=
#690000
0!
01
#695000
1!
11
#700000
0!
01
#705000
1!
11
#710000
0!
01
#715000
1!
1#
11
13
b1 9
#720000
0!
01
#725000
1!
11
b11 9
1<
#730000
0!
01
#735000
1!
11
b111 9
0<
b101001 @
b110 A
#740000
0!
01
#745000
1!
11
#750000
0!
01
#755000
1!
11
#760000
0!
01
#765000
1!
0#
0%
11
03
05
b110 9
b110 ;
b1 K
#770000
0!
01
#775000
1!
11
b100 9
b100 ;
1=
#780000
0!
01
#785000
1!
11
b0 9
b0 ;
0=
#790000
0!
01
#795000
1!
11
#800000
0!
01
#805000
1!
11
#810000
0!
01
#815000
1!
1#
11
13
b1 9
#820000
0!
01
#825000
1!
11
b11 9
1<
#830000
0!
01
#835000
1!
11
b111 9
0<
b1010010 @
b111 A
#840000
0!
01
#845000
1!
11
#850000
0!
01
#855000
1!
11
#860000
0!
01
#865000
1!
0#
1%
11
03
15
b110 9
b1 ;
b0 K
#870000
0!
01
#875000
1!
11
b100 9
b11 ;
1=
#880000
0!
01
#885000
1!
11
b0 9
b111 ;
0=
#890000
0!
01
#895000
1!
11
#900000
0!
01
#905000
1!
11
#910000
0!
01
#915000
1!
1#
11
13
b1 9
#920000
0!
01
#925000
1!
11
b11 9
1<
#930000
0!
01
#935000
1!
b10100101 (
1)
11
b10100101 8
b111 9
0<
b10100101 @
b0 A
0B
#940000
0!
01
#945000
1!
11
#950000
0!
01
#955000
1!
11
#960000
0!
01
#965000
1!
0#
0%
11
03
05
b110 9
b110 ;
b11111111111111111111111111111111 K
b0 M
#970000
0!
01
#975000
1!
11
b100 9
b100 ;
1=
#980000
0!
01
#985000
1!
11
b0 9
b0 ;
0=
#990000
0!
01
#995000
1!
11
#1000000
0!
01
#1005000
1!
11
#1010000
0!
01
#1015000
1!
1$
11
14
b1 :
#1020000
0!
01
#1025000
1!
z*
11
b11 :
0>
#1030000
0!
01
#1035000
1!
11
b111 :
#1040000
0!
01
#1045000
1!
b0 -
11
#1050000
0!
01
#1055000
1!
11
#1060000
0!
01
#1065000
1!
0"
b0 &
b0 (
b1 +
11
02
b0 8
b0 @
b10100101 N
b10100101 O
b10101000100001100110001001000000110111101110101011101000111000001110101011101000101111101100100011000010111010001100001 P
#1070000
0!
01
#1075000
1!
11
#1080000
0!
01
#1085000
1!
11
#1090000
0!
01
#1095000
1!
11
#1100000
0!
01
#1105000
1!
1"
11
12
#1110000
0!
01
#1115000
1!
11
#1120000
0!
01
#1125000
1!
11
b111100 H
#1130000
0!
01
#1135000
1!
b111100 &
1'
11
b111100 6
17
b111100 ?
#1140000
0!
01
#1145000
1!
0'
11
07
#1150000
0!
01
#1155000
1!
0$
11
04
b110 :
b0 L
#1160000
0!
01
#1165000
1!
0*
11
b100 :
1>
#1170000
0!
01
#1175000
1!
11
b0 :
#1180000
0!
01
#1185000
1!
11
#1190000
0!
01
#1195000
1!
11
#1200000
0!
01
#1205000
1!
11
b0 I
b111 K
#1210000
0!
01
#1215000
1!
11
#1220000
0!
01
#1225000
1!
11
#1230000
0!
01
#1235000
1!
11
#1240000
0!
01
#1245000
1!
11
#1250000
0!
01
#1255000
1!
1#
11
13
b1 9
#1260000
0!
01
#1265000
1!
11
b11 9
1<
#1270000
0!
01
#1275000
1!
0)
11
b111 9
0<
b1 A
1B
#1280000
0!
01
#1285000
1!
11
#1290000
0!
01
#1295000
1!
11
#1300000
0!
01
#1305000
1!
0#
11
03
b110 9
b110 K
#1310000
0!
01
#1315000
1!
11
b100 9
1=
#1320000
0!
01
#1325000
1!
11
b0 9
0=
b1111000 ?
#1330000
0!
01
#1335000
1!
11
#1340000
0!
01
#1345000
1!
11
#1350000
0!
01
#1355000
1!
1#
11
13
b1 9
#1360000
0!
01
#1365000
1!
11
b11 9
1<
#1370000
0!
01
#1375000
1!
11
b111 9
0<
b10 A
#1380000
0!
01
#1385000
1!
11
#1390000
0!
01
#1395000
1!
11
#1400000
0!
01
#1405000
1!
0#
11
03
b110 9
b101 K
#1410000
0!
01
#1415000
1!
11
b100 9
1=
#1420000
0!
01
#1425000
1!
1*
11
b0 9
0=
b11110000 ?
1C
#1430000
0!
01
#1435000
1!
11
#1440000
0!
01
#1445000
1!
11
#1450000
0!
01
#1455000
1!
1#
11
13
b1 9
b100000 J
#1460000
0!
01
#1465000
1!
11
b11 9
1<
#1470000
0!
01
#1475000
1!
11
b111 9
0<
b11 A
#1480000
0!
01
#1485000
1!
11
#1490000
0!
01
#1495000
1!
11
#1500000
0!
01
#1505000
1!
0#
11
03
b110 9
b100 K
#1510000
0!
01
#1515000
1!
11
b100 9
1=
#1520000
0!
01
#1525000
1!
11
b0 9
0=
b11100000 ?
#1530000
0!
01
#1535000
1!
11
#1540000
0!
01
#1545000
1!
11
#1550000
0!
01
#1555000
1!
1#
11
13
b1 9
b110000 J
#1560000
0!
01
#1565000
1!
11
b11 9
1<
#1570000
0!
01
#1575000
1!
11
b111 9
0<
b100 A
#1580000
0!
01
#1585000
1!
11
#1590000
0!
01
#1595000
1!
11
#1600000
0!
01
#1605000
1!
0#
11
03
b110 9
b11 K
#1610000
0!
01
#1615000
1!
11
b100 9
1=
#1620000
0!
01
#1625000
1!
11
b0 9
0=
b11000000 ?
#1630000
0!
01
#1635000
1!
11
#1640000
0!
01
#1645000
1!
11
#1650000
0!
01
#1655000
1!
1#
11
13
b1 9
b111000 J
#1660000
0!
01
#1665000
1!
11
b11 9
1<
#1670000
0!
01
#1675000
1!
11
b111 9
0<
b101 A
#1680000
0!
01
#1685000
1!
11
#1690000
0!
01
#1695000
1!
11
#1700000
0!
01
#1705000
1!
0#
11
03
b110 9
b10 K
#1710000
0!
01
#1715000
1!
11
b100 9
1=
#1720000
0!
01
#1725000
1!
11
b0 9
0=
b10000000 ?
#1730000
0!
01
#1735000
1!
11
#1740000
0!
01
#1745000
1!
11
#1750000
0!
01
#1755000
1!
1#
11
13
b1 9
b111100 J
#1760000
0!
01
#1765000
1!
11
b11 9
1<
#1770000
0!
01
#1775000
1!
11
b111 9
0<
b110 A
#1780000
0!
01
#1785000
1!
11
#1790000
0!
01
#1795000
1!
11
#1800000
0!
01
#1805000
1!
0#
11
03
b110 9
b1 K
#1810000
0!
01
#1815000
1!
11
b100 9
1=
#1820000
0!
01
#1825000
1!
0*
11
b0 9
0=
b0 ?
0C
#1830000
0!
01
#1835000
1!
11
#1840000
0!
01
#1845000
1!
11
#1850000
0!
01
#1855000
1!
1#
11
13
b1 9
#1860000
0!
01
#1865000
1!
11
b11 9
1<
#1870000
0!
01
#1875000
1!
11
b111 9
0<
b111 A
#1880000
0!
01
#1885000
1!
11
#1890000
0!
01
#1895000
1!
11
#1900000
0!
01
#1905000
1!
0#
11
03
b110 9
b0 K
#1910000
0!
01
#1915000
1!
11
b100 9
1=
#1920000
0!
01
#1925000
1!
11
b0 9
0=
#1930000
0!
01
#1935000
1!
11
#1940000
0!
01
#1945000
1!
11
#1950000
0!
01
#1955000
1!
1#
11
13
b1 9
#1960000
0!
01
#1965000
1!
11
b11 9
1<
#1970000
0!
01
#1975000
1!
1)
11
b111 9
0<
b0 A
0B
#1980000
0!
01
#1985000
1!
11
#1990000
0!
01
#1995000
1!
11
#2000000
0!
01
#2005000
1!
0#
11
03
b110 9
b11111111111111111111111111111111 K
b111100 M
#2010000
0!
01
#2015000
1!
11
b100 9
1=
#2020000
0!
01
#2025000
1!
11
b0 9
0=
#2030000
0!
01
#2035000
1!
11
#2040000
0!
01
#2045000
1!
11
#2050000
0!
01
#2055000
1!
1$
11
14
b1 :
#2060000
0!
01
#2065000
1!
z*
11
b11 :
0>
#2070000
0!
01
#2075000
1!
11
b111 :
#2080000
0!
01
#2085000
1!
0"
b0 &
b10 +
b111100 -
11
02
b0 6
b111100 N
b111100 O
b1100011011001010110100101110110011001010110010000100000011000100111100100100000011011010110000101110011011101000110010101110010 P
#2090000
0!
01
#2095000
1!
11
#2100000
0!
01
#2105000
1!
11
#2110000
0!
01
#2115000
1!
11
#2120000
0!
01
#2125000
1!
1"
11
12
#2130000
0!
01
#2135000
1!
11
#2140000
0!
01
#2145000
1!
11
b1001110 H
#2150000
0!
01
#2155000
1!
b1001110 &
1'
11
b1001110 6
17
b1001110 ?
#2160000
0!
01
#2165000
1!
0'
11
07
#2170000
0!
01
#2175000
1!
0$
11
04
b110 :
b10110111 L
#2180000
0!
01
#2185000
1!
0*
11
b100 :
1>
#2190000
0!
01
#2195000
1!
11
b0 :
#2200000
0!
01
#2205000
1!
11
#2210000
0!
01
#2215000
1!
11
#2220000
0!
01
#2225000
1!
1%
11
15
b1 ;
b10110111 I
b0 J
b111 K
#2230000
0!
01
#2235000
1!
11
b11 ;
#2240000
0!
01
#2245000
1!
11
b111 ;
#2250000
0!
01
#2255000
1!
11
#2260000
0!
01
#2265000
1!
11
#2270000
0!
01
#2275000
1!
1#
11
13
b1 9
#2280000
0!
01
#2285000
1!
11
b11 9
1<
#2290000
0!
01
#2295000
1!
0)
11
b111 9
0<
b1 @
b1 A
1B
#2300000
0!
01
#2305000
1!
11
#2310000
0!
01
#2315000
1!
11
#2320000
0!
01
#2325000
1!
0#
0%
11
03
05
b110 9
b110 ;
b110 K
#2330000
0!
01
#2335000
1!
11
b100 9
b100 ;
1=
#2340000
0!
01
#2345000
1!
1*
11
b0 9
b0 ;
0=
b10011100 ?
1C
#2350000
0!
01
#2355000
1!
11
#2360000
0!
01
#2365000
1!
11
#2370000
0!
01
#2375000
1!
1#
11
13
b1 9
b1000000 J
#2380000
0!
01
#2385000
1!
11
b11 9
1<
#2390000
0!
01
#2395000
1!
11
b111 9
0<
b10 @
b10 A
#2400000
0!
01
#2405000
1!
11
#2410000
0!
01
#2415000
1!
11
#2420000
0!
01
#2425000
1!
0#
1%
11
03
15
b110 9
b1 ;
b101 K
#2430000
0!
01
#2435000
1!
11
b100 9
b11 ;
1=
#2440000
0!
01
#2445000
1!
0*
11
b0 9
b111 ;
0=
b111000 ?
0C
#2450000
0!
01
#2455000
1!
11
#2460000
0!
01
#2465000
1!
11
#2470000
0!
01
#2475000
1!
1#
11
13
b1 9
#2480000
0!
01
#2485000
1!
11
b11 9
1<
#2490000
0!
01
#2495000
1!
11
b111 9
0<
b101 @
b11 A
#2500000
0!
01
#2505000
1!
11
#2510000
0!
01
#2515000
1!
11
#2520000
0!
01
#2525000
1!
0#
11
03
b110 9
b100 K
#2530000
0!
01
#2535000
1!
11
b100 9
1=
#2540000
0!
01
#2545000
1!
11
b0 9
0=
b1110000 ?
#2550000
0!
01
#2555000
1!
11
#2560000
0!
01
#2565000
1!
11
#2570000
0!
01
#2575000
1!
1#
11
13
b1 9
#2580000
0!
01
#2585000
1!
11
b11 9
1<
#2590000
0!
01
#2595000
1!
11
b111 9
0<
b1011 @
b100 A
#2600000
0!
01
#2605000
1!
11
#2610000
0!
01
#2615000
1!
11
#2620000
0!
01
#2625000
1!
0#
0%
11
03
05
b110 9
b110 ;
b11 K
#2630000
0!
01
#2635000
1!
11
b100 9
b100 ;
1=
#2640000
0!
01
#2645000
1!
1*
11
b0 9
b0 ;
0=
b11100000 ?
1C
#2650000
0!
01
#2655000
1!
11
#2660000
0!
01
#2665000
1!
11
#2670000
0!
01
#2675000
1!
1#
11
13
b1 9
b1001000 J
#2680000
0!
01
#2685000
1!
11
b11 9
1<
#2690000
0!
01
#2695000
1!
11
b111 9
0<
b10110 @
b101 A
#2700000
0!
01
#2705000
1!
11
#2710000
0!
01
#2715000
1!
11
#2720000
0!
01
#2725000
1!
0#
1%
11
03
15
b110 9
b1 ;
b10 K
#2730000
0!
01
#2735000
1!
11
b100 9
b11 ;
1=
#2740000
0!
01
#2745000
1!
11
b0 9
b111 ;
0=
b11000000 ?
#2750000
0!
01
#2755000
1!
11
#2760000
0!
01
#2765000
1!
11
#2770000
0!
01
#2775000
1!
1#
11
13
b1 9
b1001100 J
#2780000
0!
01
#2785000
1!
11
b11 9
1<
#2790000
0!
01
#2795000
1!
11
b111 9
0<
b101101 @
b110 A
#2800000
0!
01
#2805000
1!
11
#2810000
0!
01
#2815000
1!
11
#2820000
0!
01
#2825000
1!
0#
11
03
b110 9
b1 K
#2830000
0!
01
#2835000
1!
11
b100 9
1=
#2840000
0!
01
#2845000
1!
11
b0 9
0=
b10000000 ?
#2850000
0!
01
#2855000
1!
11
#2860000
0!
01
#2865000
1!
11
#2870000
0!
01
#2875000
1!
1#
11
13
b1 9
b1001110 J
#2880000
0!
01
#2885000
1!
11
b11 9
1<
#2890000
0!
01
#2895000
1!
11
b111 9
0<
b1011011 @
b111 A
#2900000
0!
01
#2905000
1!
11
#2910000
0!
01
#2915000
1!
11
#2920000
0!
01
#2925000
1!
0#
11
03
b110 9
b0 K
#2930000
0!
01
#2935000
1!
11
b100 9
1=
#2940000
0!
01
#2945000
1!
0*
11
b0 9
0=
b0 ?
0C
#2950000
0!
01
#2955000
1!
11
#2960000
0!
01
#2965000
1!
11
#2970000
0!
01
#2975000
1!
1#
11
13
b1 9
#2980000
0!
01
#2985000
1!
11
b11 9
1<
#2990000
0!
01
#2995000
1!
b10110111 (
1)
11
b10110111 8
b111 9
0<
b10110111 @
b0 A
0B
#3000000
0!
01
#3005000
1!
11
#3010000
0!
01
#3015000
1!
11
#3020000
0!
01
#3025000
1!
0#
0%
11
03
05
b110 9
b110 ;
b11111111111111111111111111111111 K
b1001110 M
#3030000
0!
01
#3035000
1!
11
b100 9
b100 ;
1=
#3040000
0!
01
#3045000
1!
11
b0 9
b0 ;
0=
#3050000
0!
01
#3055000
1!
11
#3060000
0!
01
#3065000
1!
11
#3070000
0!
01
#3075000
1!
1$
11
14
b1 :
#3080000
0!
01
#3085000
1!
z*
11
b11 :
0>
#3090000
0!
01
#3095000
1!
11
b111 :
#3100000
0!
01
#3105000
1!
b1001110 -
11
#3110000
0!
01
#3115000
1!
11
#3120000
0!
01
#3125000
1!
0"
b0 &
b0 (
b100 +
11
02
b0 6
b0 8
b0 @
b1001110 N
b1001110 O
b1101101011000010111001101110100011001010111001000100000010100100101100000100000001010000100110101001001010100110100111100101001 P
#3130000
0!
01
#3135000
1!
11
#3140000
0!
01
#3145000
1!
11
#3150000
0!
01
#3155000
1!
11
#3160000
0!
01
#3165000
1!
1"
11
12
#3170000
0!
01
#3175000
1!
11
#3180000
0!
01
#3185000
1!
11
b11011110 H
#3190000
0!
01
#3195000
1!
b11011110 &
1'
11
b11011110 6
17
b11011110 ?
1C
#3200000
0!
01
#3205000
1!
0'
11
07
#3210000
0!
01
#3215000
1!
0$
11
04
b110 :
#3220000
0!
01
#3225000
1!
1*
11
b100 :
1>
#3230000
0!
01
#3235000
1!
11
b0 :
#3240000
0!
01
#3245000
1!
11
#3250000
0!
01
#3255000
1!
11
#3260000
0!
01
#3265000
1!
11
b10010 I
b0 J
b111 K
#3270000
0!
01
#3275000
1!
11
#3280000
0!
01
#3285000
1!
11
#3290000
0!
01
#3295000
1!
11
#3300000
0!
01
#3305000
1!
11
#3310000
0!
01
#3315000
1!
1#
11
13
b1 9
b10000000 J
#3320000
0!
01
#3325000
1!
11
b11 9
1<
#3330000
0!
01
#3335000
1!
0)
11
b111 9
0<
b1 A
1B
#3340000
0!
01
#3345000
1!
11
#3350000
0!
01
#3355000
1!
11
#3360000
0!
01
#3365000
1!
0#
11
03
b110 9
b110 K
#3370000
0!
01
#3375000
1!
11
b100 9
1=
#3380000
0!
01
#3385000
1!
11
b0 9
0=
b10111100 ?
#3390000
0!
01
#3395000
1!
11
#3400000
0!
01
#3405000
1!
11
#3410000
0!
01
#3415000
1!
1#
11
13
b1 9
b11000000 J
#3420000
0!
01
#3425000
1!
11
b11 9
1<
#3430000
0!
01
#3435000
1!
11
b111 9
0<
b10 A
#3440000
0!
01
#3445000
1!
11
#3450000
0!
01
#3455000
1!
11
#3460000
0!
01
#3465000
1!
0#
11
03
b110 9
b101 K
#3470000
0!
01
#3475000
1!
11
b100 9
1=
#3480000
0!
01
#3485000
1!
0*
11
b0 9
0=
b1111000 ?
0C
#3490000
0!
01
#3495000
1!
11
#3500000
0!
01
#3505000
1!
11
#3510000
0!
01
#3515000
1!
1#
11
13
b1 9
#3520000
0!
01
#3525000
1!
11
b11 9
1<
#3530000
0!
01
#3535000
1!
11
b111 9
0<
b11 A
#3540000
0!
01
#3545000
1!
11
#3550000
0!
01
#3555000
1!
11
#3560000
0!
01
#3565000
1!
0#
1%
11
03
15
b110 9
b1 ;
b100 K
#3570000
0!
01
#3575000
1!
11
b100 9
b11 ;
1=
#3580000
0!
01
#3585000
1!
1*
11
b0 9
b111 ;
0=
b11110000 ?
1C
#3590000
0!
01
#3595000
1!
11
#3600000
0!
01
#3605000
1!
11
#3610000
0!
01
#3615000
1!
1#
11
13
b1 9
b11010000 J
#3620000
0!
01
#3625000
1!
11
b11 9
1<
#3630000
0!
01
#3635000
1!
11
b111 9
0<
b1 @
b100 A
#3640000
0!
01
#3645000
1!
11
#3650000
0!
01
#3655000
1!
11
#3660000
0!
01
#3665000
1!
0#
0%
11
03
05
b110 9
b110 ;
b11 K
#3670000
0!
01
#3675000
1!
11
b100 9
b100 ;
1=
#3680000
0!
01
#3685000
1!
11
b0 9
b0 ;
0=
b11100000 ?
#3690000
0!
01
#3695000
1!
11
#3700000
0!
01
#3705000
1!
11
#3710000
0!
01
#3715000
1!
1#
11
13
b1 9
b11011000 J
#3720000
0!
01
#3725000
1!
11
b11 9
1<
#3730000
0!
01
#3735000
1!
11
b111 9
0<
b10 @
b101 A
#3740000
0!
01
#3745000
1!
11
#3750000
0!
01
#3755000
1!
11
#3760000
0!
01
#3765000
1!
0#
11
03
b110 9
b10 K
#3770000
0!
01
#3775000
1!
11
b100 9
1=
#3780000
0!
01
#3785000
1!
11
b0 9
0=
b11000000 ?
#3790000
0!
01
#3795000
1!
11
#3800000
0!
01
#3805000
1!
11
#3810000
0!
01
#3815000
1!
1#
11
13
b1 9
b11011100 J
#3820000
0!
01
#3825000
1!
11
b11 9
1<
#3830000
0!
01
#3835000
1!
11
b111 9
0<
b100 @
b110 A
#3840000
0!
01
#3845000
1!
11
#3850000
0!
01
#3855000
1!
11
#3860000
0!
01
#3865000
1!
0#
1%
11
03
15
b110 9
b1 ;
b1 K
#3870000
0!
01
#3875000
1!
11
b100 9
b11 ;
1=
#3880000
0!
01
#3885000
1!
11
b0 9
b111 ;
0=
b10000000 ?
#3890000
0!
01
#3895000
1!
11
#3900000
0!
01
#3905000
1!
11
#3910000
0!
01
#3915000
1!
1#
11
13
b1 9
b11011110 J
#3920000
0!
01
#3925000
1!
11
b11 9
1<
#3930000
0!
01
#3935000
1!
11
b111 9
0<
b1001 @
b111 A
#3940000
0!
01
#3945000
1!
11
#3950000
0!
01
#3955000
1!
11
#3960000
0!
01
#3965000
1!
0#
0%
11
03
05
b110 9
b110 ;
b0 K
#3970000
0!
01
#3975000
1!
11
b100 9
b100 ;
1=
#3980000
0!
01
#3985000
1!
0*
11
b0 9
b0 ;
0=
b0 ?
0C
#3990000
0!
01
#3995000
1!
11
#4000000
0!
01
#4005000
1!
11
#4010000
0!
01
#4015000
1!
1#
11
13
b1 9
#4020000
0!
01
#4025000
1!
11
b11 9
1<
#4030000
0!
01
#4035000
1!
b10010 (
1)
11
b10010 8
b111 9
0<
b10010 @
b0 A
0B
#4040000
0!
01
#4045000
1!
11
#4050000
0!
01
#4055000
1!
11
#4060000
0!
01
#4065000
1!
0#
b11011110 -
11
03
b110 9
b11111111111111111111111111111111 K
#4070000
0!
01
#4075000
1!
b110 +
11
b100 9
1=
b11011110 N
b11011110 O
b10101000100001100110100001000000110011001110010011000010110110101100101001100010010000001001101010010010101001101001111 P
#4080000
0!
01
#4085000
1!
11
b0 9
0=
#4090000
0!
01
#4095000
1!
11
#4100000
0!
01
#4105000
1!
11
b10101101 H
#4110000
0!
01
#4115000
1!
b10101101 &
1'
1*
11
b10101101 6
17
b10101101 ?
1C
#4120000
0!
01
#4125000
1!
0'
11
07
#4130000
0!
01
#4135000
1!
11
#4140000
0!
01
#4145000
1!
11
#4150000
0!
01
#4155000
1!
11
b110100 I
b0 J
b111 K
#4160000
0!
01
#4165000
1!
11
#4170000
0!
01
#4175000
1!
11
#4180000
0!
01
#4185000
1!
11
#4190000
0!
01
#4195000
1!
11
#4200000
0!
01
#4205000
1!
1#
11
13
b1 9
b10000000 J
#4210000
0!
01
#4215000
1!
11
b11 9
1<
#4220000
0!
01
#4225000
1!
0)
11
b111 9
0<
b100100 @
b1 A
1B
#4230000
0!
01
#4235000
1!
11
#4240000
0!
01
#4245000
1!
11
#4250000
0!
01
#4255000
1!
0#
11
03
b110 9
b110 K
#4260000
0!
01
#4265000
1!
11
b100 9
1=
#4270000
0!
01
#4275000
1!
0*
11
b0 9
0=
b1011010 ?
0C
#4280000
0!
01
#4285000
1!
11
#4290000
0!
01
#4295000
1!
11
#4300000
0!
01
#4305000
1!
1#
11
13
b1 9
#4310000
0!
01
#4315000
1!
11
b11 9
1<
#4320000
0!
01
#4325000
1!
11
b111 9
0<
b1001000 @
b10 A
#4330000
0!
01
#4335000
1!
11
#4340000
0!
01
#4345000
1!
11
#4350000
0!
01
#4355000
1!
0#
1%
11
03
15
b110 9
b1 ;
b101 K
#4360000
0!
01
#4365000
1!
11
b100 9
b11 ;
1=
#4370000
0!
01
#4375000
1!
1*
11
b0 9
b111 ;
0=
b10110100 ?
1C
#4380000
0!
01
#4385000
1!
11
#4390000
0!
01
#4395000
1!
11
#4400000
0!
01
#4405000
1!
1#
11
13
b1 9
b10100000 J
#4410000
0!
01
#4415000
1!
11
b11 9
1<
#4420000
0!
01
#4425000
1!
11
b111 9
0<
b10010001 @
b11 A
#4430000
0!
01
#4435000
1!
11
#4440000
0!
01
#4445000
1!
11
#4450000
0!
01
#4455000
1!
0#
11
03
b110 9
b100 K
#4460000
0!
01
#4465000
1!
11
b100 9
1=
#4470000
0!
01
#4475000
1!
0*
11
b0 9
0=
b1101000 ?
0C
#4480000
0!
01
#4485000
1!
11
#4490000
0!
01
#4495000
1!
11
#4500000
0!
01
#4505000
1!
1#
11
13
b1 9
#4510000
0!
01
#4515000
1!
11
b11 9
1<
#4520000
0!
01
#4525000
1!
11
b111 9
0<
b100011 @
b100 A
#4530000
0!
01
#4535000
1!
11
#4540000
0!
01
#4545000
1!
11
#4550000
0!
01
#4555000
1!
0#
0%
11
03
05
b110 9
b110 ;
b11 K
#4560000
0!
01
#4565000
1!
11
b100 9
b100 ;
1=
#4570000
0!
01
#4575000
1!
1*
11
b0 9
b0 ;
0=
b11010000 ?
1C
#4580000
0!
01
#4585000
1!
11
#4590000
0!
01
#4595000
1!
11
#4600000
0!
01
#4605000
1!
1#
11
13
b1 9
b10101000 J
#4610000
0!
01
#4615000
1!
11
b11 9
1<
#4620000
0!
01
#4625000
1!
11
b111 9
0<
b1000110 @
b101 A
#4630000
0!
01
#4635000
1!
11
#4640000
0!
01
#4645000
1!
11
#4650000
0!
01
#4655000
1!
0#
1%
11
03
15
b110 9
b1 ;
b10 K
#4660000
0!
01
#4665000
1!
11
b100 9
b11 ;
1=
#4670000
0!
01
#4675000
1!
11
b0 9
b111 ;
0=
b10100000 ?
#4680000
0!
01
#4685000
1!
11
#4690000
0!
01
#4695000
1!
11
#4700000
0!
01
#4705000
1!
1#
11
13
b1 9
b10101100 J
#4710000
0!
01
